# 3ds Max Wavefront OBJ Exporter v0.97b - (c)2007 guruware
# File Created: 23.11.2018 19:00:34

mtllib Bolts_low.mtl

#
# object Bolts_low
#

v  18.8566 1.6800 24.0805
v  21.8578 1.6800 27.0940
v  25.9960 1.6800 25.9797
v  19.9569 1.6800 19.9576
v  27.0979 1.6800 21.8741
v  24.0788 1.6800 18.8568
v  25.9960 -1.6800 25.9797
v  21.8578 -1.6800 27.0940
v  27.0979 -1.6800 21.8741
v  24.0788 -1.6800 18.8568
v  19.9569 -1.6800 19.9576
v  18.8566 -1.6800 24.0805
v  -3.6939 1.6800 30.3610
v  -3.7025 1.6800 34.6142
v  0.0115 1.6800 36.7523
v  -0.0005 1.6800 28.2239
v  3.6938 1.6800 34.6286
v  3.6924 1.6800 30.3601
v  0.0115 -1.6800 36.7523
v  -3.7025 -1.6800 34.6142
v  3.6938 -1.6800 34.6286
v  3.6924 -1.6800 30.3601
v  -0.0005 -1.6800 28.2239
v  -3.6939 -1.6800 30.3610
v  -24.0805 1.6800 18.8566
v  -27.0940 1.6800 21.8578
v  -25.9797 1.6800 25.9960
v  -19.9577 1.6800 19.9569
v  -21.8741 1.6800 27.0979
v  -18.8568 1.6800 24.0787
v  -25.9797 -1.6800 25.9960
v  -27.0940 -1.6800 21.8578
v  -21.8741 -1.6800 27.0979
v  -18.8568 -1.6800 24.0787
v  -19.9577 -1.6800 19.9569
v  -24.0805 -1.6800 18.8566
v  -30.3610 1.6800 -3.6939
v  -34.6142 1.6800 -3.7025
v  -36.7523 1.6800 0.0115
v  -28.2239 1.6800 -0.0006
v  -34.6286 1.6800 3.6938
v  -30.3601 1.6800 3.6924
v  -36.7523 -1.6800 0.0115
v  -34.6142 -1.6800 -3.7025
v  -34.6286 -1.6800 3.6938
v  -30.3601 -1.6800 3.6924
v  -28.2239 -1.6800 -0.0006
v  -30.3610 -1.6800 -3.6939
v  -18.8566 1.6800 -24.0805
v  -21.8579 1.6800 -27.0940
v  -25.9961 1.6800 -25.9797
v  -19.9570 1.6800 -19.9577
v  -27.0979 1.6800 -21.8742
v  -24.0788 1.6800 -18.8568
v  -25.9961 -1.6800 -25.9797
v  -21.8579 -1.6800 -27.0940
v  -27.0979 -1.6800 -21.8742
v  -24.0788 -1.6800 -18.8568
v  -19.9570 -1.6800 -19.9577
v  -18.8566 -1.6800 -24.0805
v  3.6938 1.6800 -30.3610
v  3.7024 1.6800 -34.6142
v  -0.0115 1.6800 -36.7523
v  0.0005 1.6800 -28.2239
v  -3.6939 1.6800 -34.6286
v  -3.6925 1.6800 -30.3601
v  -0.0115 -1.6800 -36.7523
v  3.7024 -1.6800 -34.6142
v  -3.6939 -1.6800 -34.6286
v  -3.6925 -1.6800 -30.3601
v  0.0005 -1.6800 -28.2239
v  3.6938 -1.6800 -30.3610
v  24.0805 1.6800 -18.8566
v  27.0939 1.6800 -21.8579
v  25.9796 1.6800 -25.9960
v  19.9576 1.6800 -19.9570
v  21.8741 1.6800 -27.0979
v  18.8568 1.6800 -24.0788
v  25.9796 -1.6800 -25.9960
v  27.0939 -1.6800 -21.8579
v  21.8741 -1.6800 -27.0979
v  18.8568 -1.6800 -24.0788
v  19.9576 -1.6800 -19.9570
v  24.0805 -1.6800 -18.8566
v  30.3610 1.6800 3.6938
v  34.6142 1.6800 3.7024
v  36.7523 1.6800 -0.0116
v  28.2239 1.6800 0.0005
v  34.6286 1.6800 -3.6939
v  30.3601 1.6800 -3.6925
v  36.7523 -1.6800 -0.0116
v  34.6142 -1.6800 3.7024
v  34.6286 -1.6800 -3.6939
v  30.3601 -1.6800 -3.6925
v  28.2239 -1.6800 0.0005
v  30.3610 -1.6800 3.6938
# 96 vertices

vn -0.7653 0.6103 0.2047
vn -0.2054 0.6098 0.7655
vn 0.5605 0.6101 0.5600
vn -0.5604 0.6099 -0.5604
vn 0.7655 0.6099 -0.2051
vn 0.2053 0.6101 -0.7653
vn 0.5605 -0.6101 0.5600
vn -0.2054 -0.6098 0.7655
vn 0.7655 -0.6099 -0.2051
vn 0.2053 -0.6101 -0.7653
vn -0.5604 -0.6099 -0.5604
vn -0.7653 -0.6103 0.2047
vn -0.6859 0.6102 -0.3965
vn -0.6866 0.6098 0.3960
vn 0.0003 0.6101 0.7923
vn -0.0001 0.6099 -0.7925
vn 0.6863 0.6099 0.3963
vn 0.6863 0.6101 -0.3960
vn 0.0003 -0.6101 0.7923
vn -0.6866 -0.6098 0.3960
vn 0.6863 -0.6099 0.3963
vn 0.6863 -0.6101 -0.3960
vn -0.0001 -0.6099 -0.7925
vn -0.6859 -0.6102 -0.3965
vn -0.2046 0.6102 -0.7654
vn -0.7655 0.6098 -0.2054
vn -0.5600 0.6102 0.5604
vn 0.5603 0.6099 -0.5604
vn 0.2051 0.6100 0.7654
vn 0.7653 0.6101 0.2053
vn -0.5600 -0.6102 0.5604
vn -0.7655 -0.6098 -0.2054
vn 0.2051 -0.6100 0.7654
vn 0.7653 -0.6101 0.2053
vn 0.5603 -0.6099 -0.5604
vn -0.2046 -0.6102 -0.7654
vn 0.3965 0.6103 -0.6858
vn -0.3960 0.6098 -0.6865
vn -0.7923 0.6101 0.0003
vn 0.7925 0.6099 -0.0001
vn -0.3963 0.6099 0.6863
vn 0.3960 0.6101 0.6863
vn -0.7923 -0.6101 0.0003
vn -0.3960 -0.6098 -0.6865
vn -0.3963 -0.6099 0.6863
vn 0.3960 -0.6101 0.6863
vn 0.7925 -0.6099 -0.0001
vn 0.3965 -0.6103 -0.6858
vn 0.7654 0.6102 -0.2046
vn 0.2054 0.6098 -0.7655
vn -0.5605 0.6101 -0.5600
vn 0.5604 0.6099 0.5603
vn -0.7655 0.6099 0.2051
vn -0.2053 0.6101 0.7653
vn -0.5605 -0.6101 -0.5600
vn 0.2054 -0.6098 -0.7655
vn -0.7655 -0.6099 0.2051
vn -0.2053 -0.6101 0.7653
vn 0.5604 -0.6099 0.5603
vn 0.7654 -0.6102 -0.2046
vn 0.6859 0.6102 0.3965
vn 0.6866 0.6098 -0.3960
vn -0.0003 0.6101 -0.7923
vn 0.0001 0.6099 0.7925
vn -0.6863 0.6099 -0.3963
vn -0.6863 0.6101 0.3960
vn -0.0003 -0.6101 -0.7923
vn 0.6866 -0.6098 -0.3960
vn -0.6863 -0.6099 -0.3963
vn -0.6863 -0.6101 0.3960
vn 0.0001 -0.6099 0.7925
vn 0.6859 -0.6102 0.3965
vn 0.2047 0.6103 0.7653
vn 0.7655 0.6098 0.2054
vn 0.5600 0.6101 -0.5605
vn -0.5604 0.6099 0.5604
vn -0.2051 0.6099 -0.7655
vn -0.7653 0.6101 -0.2053
vn 0.5600 -0.6101 -0.5605
vn 0.7655 -0.6098 0.2054
vn -0.2051 -0.6099 -0.7655
vn -0.7653 -0.6101 -0.2053
vn -0.5604 -0.6099 0.5604
vn 0.2047 -0.6103 0.7653
vn -0.3965 0.6102 0.6859
vn 0.3960 0.6098 0.6866
vn 0.7923 0.6102 -0.0004
vn -0.7925 0.6099 0.0001
vn 0.3963 0.6099 -0.6863
vn -0.3960 0.6101 -0.6863
vn 0.7923 -0.6102 -0.0004
vn 0.3960 -0.6098 0.6866
vn 0.3963 -0.6099 -0.6863
vn -0.3960 -0.6101 -0.6863
vn -0.7925 -0.6099 0.0001
vn -0.3965 -0.6102 0.6859
# 96 vertex normals

vt 0.1417 0.6879 0.0000
vt 0.1836 0.6457 0.0000
vt 0.2415 0.6613 0.0000
vt 0.1571 0.7454 0.0000
vt 0.2568 0.7187 0.0000
vt 0.2147 0.7608 0.0000
vt 0.6592 0.3656 0.0000
vt 0.6594 0.4369 0.0000
vt 0.5685 0.4370 24.8244
vt 0.5683 0.3658 0.0000
vt 0.7494 0.3654 0.0000
vt 0.7496 0.4367 24.8244
vt 0.8400 0.3652 0.0000
vt 0.8401 0.4365 0.0000
vt 0.9307 0.4363 0.0000
vt 0.9305 0.3650 0.0000
vt 0.3876 0.3661 0.0000
vt 0.4782 0.3659 0.0000
vt 0.4782 0.4372 0.0000
vt 0.3876 0.4374 0.0000
vt 0.0711 0.5055 0.0000
vt 0.1283 0.4902 0.0000
vt 0.0449 0.4066 0.0000
vt 0.0294 0.4640 0.0000
vt 0.1434 0.4332 0.0000
vt 0.1017 0.3915 0.0000
vt 0.2350 0.8849 0.0000
vt 0.2349 0.8256 0.0000
vt 0.2868 0.7957 0.0000
vt 0.2866 0.9148 0.0000
vt 0.3382 0.8253 0.0000
vt 0.3382 0.8849 0.0000
vt 0.6058 0.2777 0.0000
vt 0.6058 0.3325 0.0000
vt 0.5358 0.3326 0.0000
vt 0.5358 0.2777 0.0000
vt 0.6751 0.2776 0.0000
vt 0.6753 0.3325 24.8244
vt 0.7449 0.2776 0.0000
vt 0.7449 0.3325 0.0000
vt 0.8146 0.3325 0.0000
vt 0.8146 0.2776 0.0000
vt 0.3966 0.2777 0.0000
vt 0.4663 0.2777 0.0000
vt 0.4663 0.3326 24.8244
vt 0.3966 0.3326 0.0000
vt 0.1319 0.1235 0.0000
vt 0.1614 0.0724 0.0000
vt 0.0434 0.0723 0.0000
vt 0.0729 0.1237 0.0000
vt 0.1319 0.0213 0.0000
vt 0.0728 0.0213 0.0000
vt 0.2514 0.6282 0.0000
vt 0.2093 0.5862 0.0000
vt 0.2249 0.5284 0.0000
vt 0.3090 0.6128 0.0000
vt 0.2822 0.5130 0.0000
vt 0.3243 0.5552 0.0000
vt 0.6783 0.5494 0.0000
vt 0.6781 0.4779 0.0000
vt 0.7690 0.4777 24.8244
vt 0.7692 0.5492 0.0000
vt 0.5881 0.5494 0.0000
vt 0.5880 0.4781 24.8244
vt 0.4974 0.5495 0.0000
vt 0.4974 0.4783 0.0000
vt 0.4069 0.4784 0.0000
vt 0.4071 0.5497 0.0000
vt 0.9499 0.5488 0.0000
vt 0.8594 0.5490 0.0000
vt 0.8592 0.4775 0.0000
vt 0.9498 0.4775 0.0000
vt 0.1419 0.2040 0.0000
vt 0.1266 0.1468 0.0000
vt 0.0430 0.2303 0.0000
vt 0.1004 0.2458 0.0000
vt 0.0696 0.1317 0.0000
vt 0.0277 0.1734 0.0000
vt 0.2007 0.9741 0.0000
vt 0.1412 0.9742 0.0000
vt 0.1114 0.9224 0.0000
vt 0.2305 0.9225 0.0000
vt 0.1410 0.8709 0.0000
vt 0.2007 0.8709 0.0000
vt 0.6135 0.6637 0.0000
vt 0.6135 0.6088 0.0000
vt 0.6835 0.6088 0.0000
vt 0.6835 0.6637 0.0000
vt 0.5440 0.6637 0.0000
vt 0.5440 0.6088 24.8244
vt 0.4744 0.6637 0.0000
vt 0.4744 0.6088 0.0000
vt 0.4045 0.6088 0.0000
vt 0.4045 0.6637 0.0000
vt 0.8227 0.6635 0.0000
vt 0.7530 0.6635 0.0000
vt 0.7530 0.6086 24.8244
vt 0.8227 0.6086 0.0000
vt 0.1380 0.2977 0.0000
vt 0.0869 0.2681 0.0000
vt 0.0868 0.3862 0.0000
vt 0.1382 0.3566 0.0000
vt 0.0358 0.2977 0.0000
vt 0.0358 0.3568 0.0000
vt 0.1317 0.8443 0.0000
vt 0.0898 0.8864 0.0000
vt 0.0320 0.8709 0.0000
vt 0.1164 0.7867 0.0000
vt 0.0167 0.8135 0.0000
vt 0.0588 0.7714 0.0000
vt 0.6654 0.7556 0.0000
vt 0.6652 0.6844 0.0000
vt 0.7561 0.6842 24.8244
vt 0.7563 0.7555 0.0000
vt 0.5752 0.7558 0.0000
vt 0.5750 0.6845 24.8244
vt 0.4845 0.7560 0.0000
vt 0.4845 0.6847 0.0000
vt 0.3939 0.6849 0.0000
vt 0.3941 0.7562 0.0000
vt 0.9370 0.7551 0.0000
vt 0.8464 0.7553 0.0000
vt 0.8463 0.6840 0.0000
vt 0.9368 0.6838 0.0000
vt 0.2547 0.0165 0.0000
vt 0.1975 0.0318 0.0000
vt 0.2809 0.1154 0.0000
vt 0.2964 0.0581 0.0000
vt 0.1824 0.0888 0.0000
vt 0.2241 0.1306 0.0000
vt 0.1255 0.6462 0.0000
vt 0.1256 0.7057 0.0000
vt 0.0701 0.7356 0.0000
vt 0.0704 0.6164 0.0000
vt 0.0187 0.7058 0.0000
vt 0.0187 0.6462 0.0000
vt 0.6312 0.8498 0.0000
vt 0.6310 0.7949 0.0000
vt 0.7010 0.7949 0.0000
vt 0.7010 0.8498 0.0000
vt 0.5617 0.8498 0.0000
vt 0.5617 0.7951 24.8244
vt 0.4918 0.8500 0.0000
vt 0.4918 0.7951 0.0000
vt 0.4222 0.7951 0.0000
vt 0.4222 0.8500 0.0000
vt 0.8403 0.8498 0.0000
vt 0.7705 0.8498 0.0000
vt 0.7705 0.7949 24.8244
vt 0.8403 0.7949 0.0000
vt 0.1938 0.4110 0.0000
vt 0.1643 0.4621 0.0000
vt 0.2825 0.4622 0.0000
vt 0.2528 0.4108 0.0000
vt 0.1938 0.5132 0.0000
vt 0.2529 0.5132 0.0000
vt 0.1554 0.5077 0.0000
vt 0.1974 0.5496 0.0000
vt 0.1818 0.6074 0.0000
vt 0.0978 0.5231 0.0000
vt 0.1245 0.6228 0.0000
vt 0.0823 0.5807 0.0000
vt 0.6839 0.8854 0.0000
vt 0.6841 0.9567 0.0000
vt 0.5932 0.9569 24.8244
vt 0.5930 0.8856 0.0000
vt 0.7741 0.8852 0.0000
vt 0.7743 0.9565 24.8244
vt 0.8646 0.8851 0.0000
vt 0.8648 0.9563 0.0000
vt 0.9553 0.9562 0.0000
vt 0.9552 0.8849 0.0000
vt 0.4123 0.8860 0.0000
vt 0.5028 0.8858 0.0000
vt 0.5028 0.9571 0.0000
vt 0.4123 0.9572 0.0000
vt 0.1824 0.3103 0.0000
vt 0.1975 0.3675 0.0000
vt 0.2811 0.2841 0.0000
vt 0.2239 0.2686 0.0000
vt 0.2547 0.3828 0.0000
vt 0.2964 0.3409 0.0000
vt 0.2933 0.6390 0.0000
vt 0.3528 0.6389 0.0000
vt 0.3826 0.6908 0.0000
vt 0.2634 0.6906 0.0000
vt 0.3529 0.7421 0.0000
vt 0.2933 0.7421 0.0000
vt 0.5919 0.1944 0.0000
vt 0.5919 0.2493 0.0000
vt 0.5219 0.2493 0.0000
vt 0.5219 0.1944 0.0000
vt 0.6614 0.1944 0.0000
vt 0.6614 0.2493 24.8244
vt 0.7311 0.1944 0.0000
vt 0.7312 0.2493 0.0000
vt 0.8009 0.2491 0.0000
vt 0.8009 0.1942 0.0000
vt 0.3828 0.1944 0.0000
vt 0.4524 0.1944 0.0000
vt 0.4524 0.2493 24.8244
vt 0.3828 0.2493 0.0000
vt 0.2020 0.2249 0.0000
vt 0.2533 0.2545 0.0000
vt 0.2534 0.1364 0.0000
vt 0.2020 0.1660 0.0000
vt 0.3044 0.2249 0.0000
vt 0.3044 0.1658 0.0000
# 208 texture coords

o Bolts_low
g Bolts_low
usemtl Material__2
s off
f 1/1/1 2/2/2 3/3/3 4/4/4 
f 4/4/4 3/3/3 5/5/5 6/6/6 
f 7/7/7 3/8/3 2/9/2 8/10/8 
f 9/11/9 5/12/5 3/8/3 7/7/7 
f 10/13/10 6/14/6 5/12/5 9/11/9 
f 4/15/4 6/14/6 10/13/10 11/16/11 
f 11/17/11 12/18/12 1/19/1 4/20/4 
f 2/9/2 1/19/1 12/18/12 8/10/8 
s 1
f 12/21/12 11/22/11 7/23/7 8/24/8 
s 2
f 11/22/11 10/25/10 9/26/9 7/23/7 
s off
f 13/27/13 14/28/14 15/29/15 16/30/16 
f 16/30/16 15/29/15 17/31/17 18/32/18 
f 19/33/19 15/34/15 14/35/14 20/36/20 
f 21/37/21 17/38/17 15/34/15 19/33/19 
f 22/39/22 18/40/18 17/38/17 21/37/21 
f 16/41/16 18/40/18 22/39/22 23/42/23 
f 23/43/23 24/44/24 13/45/13 16/46/16 
f 14/35/14 13/45/13 24/44/24 20/36/20 
s 1
f 24/47/24 23/48/23 19/49/19 20/50/20 
s 2
f 23/48/23 22/51/22 21/52/21 19/49/19 
s off
f 25/53/25 26/54/26 27/55/27 28/56/28 
f 28/56/28 27/55/27 29/57/29 30/58/30 
f 31/59/31 27/60/27 26/61/26 32/62/32 
f 33/63/33 29/64/29 27/60/27 31/59/31 
f 34/65/34 30/66/30 29/64/29 33/63/33 
f 28/67/28 30/66/30 34/65/34 35/68/35 
f 35/69/35 36/70/36 25/71/25 28/72/28 
f 26/61/26 25/71/25 36/70/36 32/62/32 
s 1
f 36/73/36 35/74/35 31/75/31 32/76/32 
s 2
f 35/74/35 34/77/34 33/78/33 31/75/31 
s off
f 37/79/37 38/80/38 39/81/39 40/82/40 
f 40/82/40 39/81/39 41/83/41 42/84/42 
f 43/85/43 39/86/39 38/87/38 44/88/44 
f 45/89/45 41/90/41 39/86/39 43/85/43 
f 46/91/46 42/92/42 41/90/41 45/89/45 
f 40/93/40 42/92/42 46/91/46 47/94/47 
f 47/95/47 48/96/48 37/97/37 40/98/40 
f 38/87/38 37/97/37 48/96/48 44/88/44 
s 1
f 48/99/48 47/100/47 43/101/43 44/102/44 
s 2
f 47/100/47 46/103/46 45/104/45 43/101/43 
s off
f 49/105/49 50/106/50 51/107/51 52/108/52 
f 52/108/52 51/107/51 53/109/53 54/110/54 
f 55/111/55 51/112/51 50/113/50 56/114/56 
f 57/115/57 53/116/53 51/112/51 55/111/55 
f 58/117/58 54/118/54 53/116/53 57/115/57 
f 52/119/52 54/118/54 58/117/58 59/120/59 
f 59/121/59 60/122/60 49/123/49 52/124/52 
f 50/113/50 49/123/49 60/122/60 56/114/56 
s 1
f 60/125/60 59/126/59 55/127/55 56/128/56 
s 2
f 59/126/59 58/129/58 57/130/57 55/127/55 
s off
f 61/131/61 62/132/62 63/133/63 64/134/64 
f 64/134/64 63/133/63 65/135/65 66/136/66 
f 67/137/67 63/138/63 62/139/62 68/140/68 
f 69/141/69 65/142/65 63/138/63 67/137/67 
f 70/143/70 66/144/66 65/142/65 69/141/69 
f 64/145/64 66/144/66 70/143/70 71/146/71 
f 71/147/71 72/148/72 61/149/61 64/150/64 
f 62/139/62 61/149/61 72/148/72 68/140/68 
s 1
f 72/151/72 71/152/71 67/153/67 68/154/68 
s 2
f 71/152/71 70/155/70 69/156/69 67/153/67 
s off
f 73/157/73 74/158/74 75/159/75 76/160/76 
f 76/160/76 75/159/75 77/161/77 78/162/78 
f 79/163/79 75/164/75 74/165/74 80/166/80 
f 81/167/81 77/168/77 75/164/75 79/163/79 
f 82/169/82 78/170/78 77/168/77 81/167/81 
f 76/171/76 78/170/78 82/169/82 83/172/83 
f 83/173/83 84/174/84 73/175/73 76/176/76 
f 74/165/74 73/175/73 84/174/84 80/166/80 
s 1
f 84/177/84 83/178/83 79/179/79 80/180/80 
s 2
f 83/178/83 82/181/82 81/182/81 79/179/79 
s off
f 85/183/85 86/184/86 87/185/87 88/186/88 
f 88/186/88 87/185/87 89/187/89 90/188/90 
f 91/189/91 87/190/87 86/191/86 92/192/92 
f 93/193/93 89/194/89 87/190/87 91/189/91 
f 94/195/94 90/196/90 89/194/89 93/193/93 
f 88/197/88 90/196/90 94/195/94 95/198/95 
f 95/199/95 96/200/96 85/201/85 88/202/88 
f 86/191/86 85/201/85 96/200/96 92/192/92 
s 1
f 96/203/96 95/204/95 91/205/91 92/206/92 
s 2
f 95/204/95 94/207/94 93/208/93 91/205/91 
# 80 polygons

