# File produced by Open Asset Import Library (http://www.assimp.sf.net)
# (assimp v3.1.179037358)

mtllib Crate.mtl

# 504 vertex positions
v  -18.3221 5.7225 -13.4959
v  -18.3221 5.7225 14.4293
v  -18.3221 33.6476 14.4293
v  -18.3221 33.6476 -13.4959
v  -21.5248 0.8641 -17.4312
v  -21.5248 0.8641 18.3646
v  -21.5248 4.8584 14.3703
v  -21.5248 4.8584 -13.4369
v  -21.5248 2.1213 19.2391
v  -21.5248 37.2488 19.2391
v  -21.5248 33.3516 15.3419
v  -21.5248 6.0184 15.3419
v  -21.5248 37.5829 -18.3542
v  -21.5248 1.7871 -18.3542
v  -21.5248 5.7814 -14.3599
v  -21.5248 33.5886 -14.3599
v  -20.2441 5.7225 -13.4959
v  -20.2441 5.7225 14.4293
v  -20.2441 33.6476 14.4293
v  -20.2441 33.6476 -13.4959
v  -20.0813 39.3701 20.3146
v  -20.0813 39.3701 -19.3812
v  -20.712 39.3218 -18.8865
v  -20.712 39.3218 19.8199
v  -20.6352 33.6879 -13.2991
v  -21.5248 34.4867 -13.5587
v  -21.5248 38.5309 -17.6029
v  -20.6352 33.6879 14.2325
v  -21.5248 38.5309 18.5363
v  -21.5248 34.4867 14.4921
v  -20.0813 0 20.3146
v  -20.8574 38.6929 20.0533
v  -20.8574 0.6772 20.0533
v  -20.7437 33.2563 14.5094
v  -20.7437 6.1138 14.5094
v  -20.0813 0 -19.3812
v  -20.7637 0.0636997 19.7136
v  -20.7637 0.0636997 -18.7802
v  -20.6713 5.6701 14.1737
v  -20.6713 5.6701 -13.2403
v  -20.7637 0.438101 -19.1547
v  -20.7637 38.9319 -19.1547
v  -20.6713 5.978 -13.5482
v  -20.6713 33.3921 -13.5482
v  -19.6111 32.4694 -15.7637
v  -19.6111 3.1185 13.5872
v  -19.6111 6.6258 17.0946
v  -19.6111 35.9768 -12.2564
v  -18.1026 31.9702 -16.263
v  -18.1026 2.6192 13.088
v  -19.0746 2.6192 13.088
v  -19.0746 31.9702 -16.263
v  -18.1026 2.2782 14.4275
v  -18.1026 5.7855 17.9349
v  -19.0746 5.7855 17.9349
v  -19.0746 2.2782 14.4275
v  -18.1026 7.1251 17.5938
v  -18.1026 36.476 -11.7571
v  -19.0746 36.476 -11.7571
v  -19.0746 7.1251 17.5938
v  -18.1026 36.8171 -13.0967
v  -18.1026 33.3097 -16.604
v  -19.0746 33.3097 -16.604
v  -19.0746 36.8171 -13.0967
v  -19.3429 32.2198 -16.0133
v  -19.3429 32.8896 -16.1839
v  -19.2534 32.5831 -16.2102
v  -19.3429 2.6983 14.0074
v  -19.3429 2.8689 13.3376
v  -19.2534 2.672 13.7009
v  -19.3429 6.8755 17.3442
v  -19.3429 6.2057 17.5147
v  -19.2534 6.5122 17.5411
v  -19.3429 36.3969 -12.6765
v  -19.3429 36.2264 -12.0067
v  -19.2534 36.4233 -12.37
v  -19.0746 2.4487 13.7577
v  -19.0746 32.6399 -16.4335
v  -19.0746 6.4553 17.7643
v  -19.0746 36.6466 -12.4269
v  -18.1026 2.4487 13.7577
v  -18.1026 32.6399 -16.4335
v  -18.1026 6.4553 17.7643
v  -18.1026 36.6466 -12.4269
v  -18.9813 3.1185 -12.2564
v  -18.9813 32.4694 17.0946
v  -18.9813 35.9768 13.5872
v  -18.9813 6.6259 -15.7637
v  -17.4728 2.6192 -11.7571
v  -17.4728 31.9702 17.5938
v  -18.4448 31.9702 17.5938
v  -18.4448 2.6192 -11.7571
v  -17.4728 33.3097 17.9349
v  -17.4728 36.8171 14.4275
v  -18.4448 36.8171 14.4275
v  -18.4448 33.3097 17.9349
v  -17.4728 36.476 13.088
v  -17.4728 7.1251 -16.263
v  -18.4448 7.1251 -16.263
v  -18.4448 36.476 13.088
v  -17.4728 5.7855 -16.604
v  -17.4728 2.2782 -13.0967
v  -18.4448 2.2782 -13.0967
v  -18.4448 5.7855 -16.604
v  -18.713 2.8689 -12.0067
v  -18.713 2.6983 -12.6765
v  -18.6236 2.672 -12.37
v  -18.713 32.8896 17.5147
v  -18.713 32.2198 17.3442
v  -18.6236 32.5831 17.5411
v  -18.713 36.2264 13.3376
v  -18.713 36.3969 14.0074
v  -18.6236 36.4233 13.7009
v  -18.713 6.2057 -16.1839
v  -18.713 6.8755 -16.0133
v  -18.6236 6.5122 -16.2102
v  -18.4448 32.6399 17.7643
v  -18.4448 2.4487 -12.4269
v  -18.4448 36.6466 13.7577
v  -18.4448 6.4553 -16.4335
v  -17.4728 32.6399 17.7643
v  -17.4728 2.4487 -12.4269
v  -17.4728 36.6466 13.7577
v  -17.4728 6.4553 -16.4335
v  13.7292 5.7225 -17.6221
v  -14.1959 5.7225 -17.6221
v  -14.1959 33.6476 -17.6221
v  13.7292 33.6476 -17.6221
v  17.6646 0.8641 -20.8247
v  -18.1313 0.8641 -20.8247
v  -14.1369 4.8584 -20.8247
v  13.6703 4.8584 -20.8247
v  -19.0057 2.1213 -20.8247
v  -19.0057 37.2488 -20.8247
v  -15.1086 33.3516 -20.8247
v  -15.1086 6.0184 -20.8247
v  18.5876 37.5829 -20.8247
v  18.5876 1.7871 -20.8247
v  14.5933 5.7814 -20.8247
v  14.5933 33.5886 -20.8247
v  13.7292 5.7225 -19.5441
v  -14.1959 5.7225 -19.5441
v  -14.1959 33.6476 -19.5441
v  13.7292 33.6476 -19.5441
v  19.6146 39.3701 -19.3812
v  19.1199 39.3218 -20.0119
v  -19.5866 39.3218 -20.0119
v  13.5325 33.6879 -19.9352
v  13.792 34.4867 -20.8247
v  17.8363 38.5309 -20.8247
v  -13.9992 33.6879 -19.9352
v  -18.303 38.5309 -20.8247
v  -14.2587 34.4867 -20.8247
v  -19.82 38.6929 -20.1573
v  -19.82 0.6772 -20.1573
v  -14.2761 33.2563 -20.0437
v  -14.2761 6.1138 -20.0437
v  19.6146 0 -19.3812
v  -19.4802 0.0636997 -20.0636
v  19.0135 0.0636997 -20.0636
v  -13.9404 5.6701 -19.9712
v  13.4737 5.6701 -19.9712
v  19.388 0.438101 -20.0636
v  19.388 38.9319 -20.0636
v  13.7816 5.978 -19.9712
v  13.7816 33.3921 -19.9712
v  15.9971 32.4694 -18.9111
v  -13.3539 3.1185 -18.9111
v  -16.8612 6.6258 -18.9111
v  12.4897 35.9768 -18.9111
v  16.4963 31.9702 -17.4026
v  -12.8546 2.6192 -17.4026
v  -12.8546 2.6192 -18.3746
v  16.4963 31.9702 -18.3746
v  -14.1942 2.2782 -17.4026
v  -17.7015 5.7855 -17.4026
v  -17.7015 5.7855 -18.3746
v  -14.1942 2.2782 -18.3746
v  -17.3605 7.1251 -17.4026
v  11.9905 36.476 -17.4026
v  11.9905 36.476 -18.3746
v  -17.3605 7.1251 -18.3746
v  13.33 36.8171 -17.4026
v  16.8374 33.3097 -17.4026
v  16.8374 33.3097 -18.3746
v  13.33 36.8171 -18.3746
v  16.2467 32.2198 -18.6428
v  16.4172 32.8896 -18.6428
v  16.4436 32.5831 -18.5534
v  -13.774 2.6983 -18.6428
v  -13.1042 2.8689 -18.6428
v  -13.4675 2.672 -18.5534
v  -17.1108 6.8755 -18.6428
v  -17.2814 6.2057 -18.6428
v  -17.3077 6.5122 -18.5534
v  12.9099 36.3969 -18.6428
v  12.2401 36.2264 -18.6428
v  12.6034 36.4233 -18.5534
v  -13.5244 2.4487 -18.3746
v  16.6668 32.6399 -18.3746
v  -17.531 6.4553 -18.3746
v  12.6602 36.6466 -18.3746
v  -13.5244 2.4487 -17.4026
v  16.6668 32.6399 -17.4026
v  -17.531 6.4553 -17.4026
v  12.6602 36.6466 -17.4026
v  12.4897 3.1185 -18.2812
v  -16.8612 32.4694 -18.2812
v  -13.3539 35.9768 -18.2812
v  15.9971 6.6259 -18.2812
v  11.9905 2.6192 -16.7728
v  -17.3605 31.9702 -16.7728
v  -17.3605 31.9702 -17.7447
v  11.9905 2.6192 -17.7447
v  -17.7015 33.3097 -16.7728
v  -14.1942 36.8171 -16.7728
v  -14.1942 36.8171 -17.7447
v  -17.7015 33.3097 -17.7447
v  -12.8546 36.476 -16.7728
v  16.4963 7.1251 -16.7728
v  16.4963 7.1251 -17.7447
v  -12.8546 36.476 -17.7447
v  16.8374 5.7855 -16.7728
v  13.33 2.2782 -16.7728
v  13.33 2.2782 -17.7447
v  16.8374 5.7855 -17.7447
v  12.2401 2.8689 -18.013
v  12.9099 2.6983 -18.013
v  12.6034 2.672 -17.9236
v  -17.2814 32.8896 -18.013
v  -17.1108 32.2198 -18.013
v  -17.3077 32.5831 -17.9236
v  -13.1042 36.2264 -18.013
v  -13.774 36.3969 -18.013
v  -13.4675 36.4233 -17.9236
v  16.4172 6.2057 -18.013
v  16.2467 6.8755 -18.013
v  16.4436 6.5122 -17.9236
v  -17.531 32.6399 -17.7447
v  12.6602 2.4487 -17.7447
v  -13.5244 36.6466 -17.7447
v  16.6668 6.4553 -17.7447
v  -17.531 32.6399 -16.7728
v  12.6602 2.4487 -16.7728
v  -13.5244 36.6466 -16.7728
v  16.6668 6.4553 -16.7728
v  17.8554 5.7225 14.4293
v  17.8554 5.7225 -13.4959
v  17.8554 33.6476 -13.4959
v  17.8554 33.6476 14.4293
v  21.0581 0.8641 18.3646
v  21.0581 0.8641 -17.4312
v  21.0581 4.8584 -13.4369
v  21.0581 4.8584 14.3703
v  21.0581 2.1213 -18.3057
v  21.0581 37.2488 -18.3057
v  21.0581 33.3516 -14.4085
v  21.0581 6.0184 -14.4085
v  21.0581 37.5829 19.2876
v  21.0581 1.7871 19.2876
v  21.0581 5.7814 15.2933
v  21.0581 33.5886 15.2933
v  19.7774 5.7225 14.4293
v  19.7774 5.7225 -13.4959
v  19.7774 33.6476 -13.4959
v  19.7774 33.6476 14.4293
v  19.6146 39.3701 20.3146
v  20.2453 39.3218 19.8199
v  20.2453 39.3218 -18.8865
v  20.1685 33.6879 14.2325
v  21.0581 34.4867 14.4921
v  21.0581 38.5309 18.5363
v  20.1685 33.6879 -13.2991
v  21.0581 38.5309 -17.6029
v  21.0581 34.4867 -13.5587
v  20.3907 38.6929 -19.1199
v  20.3907 0.6772 -19.1199
v  20.277 33.2563 -13.576
v  20.277 6.1138 -13.576
v  19.6146 0 20.3146
v  20.297 0.0636997 -18.7802
v  20.297 0.0636997 19.7136
v  20.2046 5.6701 -13.2403
v  20.2046 5.6701 14.1737
v  20.297 0.438101 20.0881
v  20.297 38.9319 20.0881
v  20.2046 5.978 14.4816
v  20.2046 33.3921 14.4816
v  19.1444 32.4694 16.6971
v  19.1444 3.1185 -12.6538
v  19.1444 6.6258 -16.1612
v  19.1444 35.9768 13.1898
v  17.6359 31.9702 17.1964
v  17.6359 2.6192 -12.1546
v  18.6079 2.6192 -12.1546
v  18.6079 31.9702 17.1964
v  17.6359 2.2782 -13.4941
v  17.6359 5.7855 -17.0015
v  18.6079 5.7855 -17.0015
v  18.6079 2.2782 -13.4941
v  17.6359 7.1251 -16.6604
v  17.6359 36.476 12.6905
v  18.6079 36.476 12.6905
v  18.6079 7.1251 -16.6604
v  17.6359 36.8171 14.0301
v  17.6359 33.3097 17.5374
v  18.6079 33.3097 17.5374
v  18.6079 36.8171 14.0301
v  18.8762 32.2198 16.9467
v  18.8762 32.8896 17.1173
v  18.7868 32.5831 17.1436
v  18.8762 2.6983 -13.074
v  18.8762 2.8689 -12.4042
v  18.7868 2.672 -12.7675
v  18.8762 6.8755 -16.4108
v  18.8762 6.2057 -16.5813
v  18.7868 6.5122 -16.6077
v  18.8762 36.3969 13.6099
v  18.8762 36.2264 12.9401
v  18.7868 36.4233 13.3034
v  18.6079 2.4487 -12.8243
v  18.6079 32.6399 17.3669
v  18.6079 6.4553 -16.8309
v  18.6079 36.6466 13.3603
v  17.6359 2.4487 -12.8243
v  17.6359 32.6399 17.3669
v  17.6359 6.4553 -16.8309
v  17.6359 36.6466 13.3603
v  18.5146 3.1185 13.1898
v  18.5146 32.4694 -16.1612
v  18.5146 35.9768 -12.6538
v  18.5146 6.6259 16.6971
v  17.0061 2.6192 12.6905
v  17.0061 31.9702 -16.6604
v  17.9781 31.9702 -16.6604
v  17.9781 2.6192 12.6905
v  17.0061 33.3097 -17.0015
v  17.0061 36.8171 -13.4941
v  17.9781 36.8171 -13.4941
v  17.9781 33.3097 -17.0015
v  17.0061 36.476 -12.1546
v  17.0061 7.1251 17.1964
v  17.9781 7.1251 17.1964
v  17.9781 36.476 -12.1546
v  17.0061 5.7855 17.5374
v  17.0061 2.2782 14.0301
v  17.9781 2.2782 14.0301
v  17.9781 5.7855 17.5374
v  18.2463 2.8689 12.9401
v  18.2463 2.6983 13.6099
v  18.1569 2.672 13.3034
v  18.2463 32.8896 -16.5813
v  18.2463 32.2198 -16.4108
v  18.1569 32.5831 -16.6077
v  18.2463 36.2264 -12.4042
v  18.2463 36.3969 -13.074
v  18.1569 36.4233 -12.7675
v  18.2463 6.2057 17.1173
v  18.2463 6.8755 16.9467
v  18.1569 6.5122 17.1436
v  17.9781 32.6399 -16.8309
v  17.9781 2.4487 13.3603
v  17.9781 36.6466 -12.8243
v  17.9781 6.4553 17.3669
v  17.0061 32.6399 -16.8309
v  17.0061 2.4487 13.3603
v  17.0061 36.6466 -12.8243
v  17.0061 6.4553 17.3669
v  -14.1959 5.7225 18.5555
v  13.7292 5.7225 18.5555
v  13.7292 33.6476 18.5555
v  -14.1959 33.6476 18.5555
v  -18.1313 0.8641 21.7581
v  17.6646 0.8641 21.7581
v  13.6703 4.8584 21.7581
v  -14.1369 4.8584 21.7581
v  18.539 2.1213 21.7581
v  18.539 37.2488 21.7581
v  14.6419 33.3516 21.7581
v  14.6419 6.0184 21.7581
v  -19.0543 37.5829 21.7581
v  -19.0543 1.7871 21.7581
v  -15.06 5.7814 21.7581
v  -15.06 33.5886 21.7581
v  -14.1959 5.7225 20.4775
v  13.7292 5.7225 20.4775
v  13.7292 33.6476 20.4775
v  -14.1959 33.6476 20.4775
v  -19.5866 39.3218 20.9453
v  19.1199 39.3218 20.9453
v  -13.9992 33.6879 20.8686
v  -14.2587 34.4867 21.7581
v  -18.303 38.5309 21.7581
v  13.5325 33.6879 20.8686
v  17.8363 38.5309 21.7581
v  13.792 34.4867 21.7581
v  19.3533 38.6929 21.0907
v  19.3533 0.6772 21.0907
v  13.8094 33.2563 20.9771
v  13.8094 6.1138 20.9771
v  19.0135 0.0636997 20.997
v  -19.4802 0.0636997 20.997
v  13.4737 5.6701 20.9046
v  -13.9404 5.6701 20.9046
v  -19.8547 0.438101 20.997
v  -19.8547 38.9319 20.997
v  -14.2483 5.978 20.9046
v  -14.2483 33.3921 20.9046
v  -16.4638 32.4694 19.8445
v  12.8872 3.1185 19.8445
v  16.3945 6.6258 19.8445
v  -12.9564 35.9768 19.8445
v  -16.963 31.9702 18.336
v  12.3879 2.6192 18.336
v  12.3879 2.6192 19.308
v  -16.963 31.9702 19.308
v  13.7275 2.2782 18.336
v  17.2348 5.7855 18.336
v  17.2348 5.7855 19.308
v  13.7275 2.2782 19.308
v  16.8938 7.1251 18.336
v  -12.4572 36.476 18.336
v  -12.4572 36.476 19.308
v  16.8938 7.1251 19.308
v  -13.7967 36.8171 18.336
v  -17.3041 33.3097 18.336
v  -17.3041 33.3097 19.308
v  -13.7967 36.8171 19.308
v  -16.7134 32.2198 19.5762
v  -16.8839 32.8896 19.5762
v  -16.9103 32.5831 19.4868
v  13.3073 2.6983 19.5762
v  12.6375 2.8689 19.5762
v  13.0008 2.672 19.4868
v  16.6441 6.8755 19.5762
v  16.8147 6.2057 19.5762
v  16.841 6.5122 19.4868
v  -13.3766 36.3969 19.5762
v  -12.7068 36.2264 19.5762
v  -13.0701 36.4233 19.4868
v  13.0577 2.4487 19.308
v  -17.1335 32.6399 19.308
v  17.0643 6.4553 19.308
v  -13.1269 36.6466 19.308
v  13.0577 2.4487 18.336
v  -17.1335 32.6399 18.336
v  17.0643 6.4553 18.336
v  -13.1269 36.6466 18.336
v  -12.9564 3.1185 19.2146
v  16.3945 32.4694 19.2146
v  12.8872 35.9768 19.2146
v  -16.4638 6.6259 19.2146
v  -12.4572 2.6192 17.7062
v  16.8938 31.9702 17.7062
v  16.8938 31.9702 18.6781
v  -12.4572 2.6192 18.6781
v  17.2348 33.3097 17.7062
v  13.7275 36.8171 17.7062
v  13.7275 36.8171 18.6781
v  17.2348 33.3097 18.6781
v  12.3879 36.476 17.7062
v  -16.963 7.1251 17.7062
v  -16.963 7.1251 18.6781
v  12.3879 36.476 18.6781
v  -17.3041 5.7855 17.7062
v  -13.7967 2.2782 17.7062
v  -13.7967 2.2782 18.6781
v  -17.3041 5.7855 18.6781
v  -12.7068 2.8689 18.9464
v  -13.3766 2.6983 18.9464
v  -13.0701 2.672 18.857
v  16.8147 32.8896 18.9464
v  16.6441 32.2198 18.9464
v  16.841 32.5831 18.857
v  12.6375 36.2264 18.9464
v  13.3073 36.3969 18.9464
v  13.0008 36.4233 18.857
v  -16.8839 6.2057 18.9464
v  -16.7134 6.8755 18.9464
v  -16.9103 6.5122 18.857
v  17.0643 32.6399 18.6781
v  -13.1269 2.4487 18.6781
v  13.0577 36.6466 18.6781
v  -17.1335 6.4553 18.6781
v  17.0643 32.6399 17.7062
v  -13.1269 2.4487 17.7062
v  13.0577 36.6466 17.7062
v  -17.1335 6.4553 17.7062
v  -16.0564 37.9857 16.2898
v  15.5897 37.9857 16.2898
v  15.5897 37.9857 -15.3564
v  -16.0564 37.9857 -15.3564
v  -15.5454 1.1398 -14.8453
v  15.0787 1.1398 -14.8453
v  15.0787 1.1398 15.7787
v  -15.5454 1.1398 15.7787
v  -17.4342 39.3701 17.6676
v  -17.4342 39.3701 -16.7342
v  16.9675 39.3701 17.6676
v  16.9675 39.3701 -16.7342
v  -17.4342 0 -16.7342
v  -17.4342 0 17.6676
v  16.9675 0 -16.7342
v  16.9675 0 17.6676

# 576 UV coordinates
vt 0.067 0.586 0
vt 0.067 0.3898 0
vt 0.2632 0.3898 0
vt 0.2632 0.586 0
vt 0.0198 0.6241 0
vt 0.0198 0.3477 0
vt 0.0507 0.3785 0
vt 0.0507 0.5932 0
vt 0.0295 0.3409 0
vt 0.3007 0.3409 0
vt 0.2707 0.371 0
vt 0.0596 0.371 0
vt 0.3033 0.6312 0
vt 0.0269 0.6312 0
vt 0.0578 0.6003 0
vt 0.2725 0.6003 0
vt 0.5237 0.9619 0
vt 0.5237 0.7681 0
vt 0.537 0.7681 0
vt 0.537 0.9619 0
vt 0.5838 0.9595 0
vt 0.5838 0.7657 0
vt 0.5971 0.7657 0
vt 0.5971 0.9595 0
vt 0.6546 0.7626 0
vt 0.6546 0.9564 0
vt 0.6412 0.9564 0
vt 0.6412 0.7626 0
vt 0.5559 0.7606 0
vt 0.5559 0.9544 0
vt 0.5426 0.9544 0
vt 0.5426 0.7606 0
vt 0.3171 0.3326 0
vt 0.3171 0.6391 0
vt 0.3167 0.6353 0
vt 0.3167 0.3364 0
vt 0.2729 0.5937 0
vt 0.2732 0.5922 0
vt 0.2794 0.5942 0
vt 0.3106 0.6254 0
vt 0.2729 0.3781 0
vt 0.2732 0.3796 0
vt 0.3106 0.3463 0
vt 0.2794 0.3776 0
vt 0.0131 0.3326 0
vt 0.3119 0.3346 0
vt 0.0184 0.3346 0
vt 0.2699 0.3774 0
vt 0.0573 0.3781 0
vt 0.0603 0.3774 0
vt 0.0131 0.6391 0
vt 0.0136 0.3373 0
vt 0.0136 0.6345 0
vt 0.0569 0.38 0
vt 0.0573 0.5937 0
vt 0.0569 0.5917 0
vt 0.9737 0.3208 0
vt 0.9737 0.0143 0
vt 0.979 0.0177 0
vt 0.979 0.3174 0
vt 0.0593 0.5941 0
vt 0.0165 0.6374 0
vt 0.271 0.5941 0
vt 0.3137 0.6374 0
vt 0.4493 0.6127 0
vt 0.4496 0.3705 0
vt 0.4822 0.3706 0
vt 0.4819 0.6129 0
vt 0.4349 0.6177 0
vt 0.4349 0.3649 0
vt 0.4422 0.3694 0
vt 0.4418 0.6138 0
vt 0.445 0.3538 0
vt 0.4871 0.3531 0
vt 0.4823 0.3614 0
vt 0.4492 0.3609 0
vt 0.4966 0.3656 0
vt 0.4966 0.6184 0
vt 0.4894 0.6139 0
vt 0.4898 0.3695 0
vt 0.4865 0.6296 0
vt 0.4444 0.6303 0
vt 0.4492 0.622 0
vt 0.4824 0.6225 0
vt 0.4457 0.6131 0
vt 0.4489 0.6176 0
vt 0.4467 0.6164 0
vt 0.4492 0.3657 0
vt 0.446 0.3701 0
vt 0.4469 0.3668 0
vt 0.4858 0.3703 0
vt 0.4826 0.3658 0
vt 0.4848 0.3669 0
vt 0.4823 0.6177 0
vt 0.4855 0.6132 0
vt 0.4846 0.6165 0
vt 0.4457 0.3647 0
vt 0.4455 0.6186 0
vt 0.4861 0.3648 0
vt 0.4859 0.6186 0
vt 0.439 0.3588 0
vt 0.4386 0.6246 0
vt 0.4929 0.3588 0
vt 0.4925 0.6246 0
vt 0.3851 0.0353 0
vt 0.3849 0.2776 0
vt 0.3523 0.2774 0
vt 0.3526 0.0351 0
vt 0.3995 0.0303 0
vt 0.3995 0.2831 0
vt 0.3923 0.2786 0
vt 0.3927 0.0342 0
vt 0.3894 0.2942 0
vt 0.3473 0.295 0
vt 0.3522 0.2867 0
vt 0.3853 0.2872 0
vt 0.3379 0.2824 0
vt 0.3379 0.0296 0
vt 0.3451 0.0341 0
vt 0.3447 0.2785 0
vt 0.348 0.0185 0
vt 0.3901 0.0178 0
vt 0.3852 0.0261 0
vt 0.3521 0.0256 0
vt 0.3887 0.035 0
vt 0.3855 0.0305 0
vt 0.3878 0.0316 0
vt 0.3853 0.2824 0
vt 0.3885 0.2779 0
vt 0.3875 0.2812 0
vt 0.3487 0.2778 0
vt 0.3519 0.2823 0
vt 0.3496 0.2811 0
vt 0.3521 0.0304 0
vt 0.3489 0.0348 0
vt 0.3499 0.0315 0
vt 0.3888 0.2833 0
vt 0.389 0.0295 0
vt 0.3484 0.2832 0
vt 0.3486 0.0294 0
vt 0.3954 0.2893 0
vt 0.3958 0.0235 0
vt 0.3416 0.2893 0
vt 0.342 0.0235 0
vt 0.7192 0.0676 0
vt 0.9192 0.0676 0
vt 0.9192 0.2675 0
vt 0.7192 0.2675 0
vt 0.6799 0.0211 0
vt 0.9585 0.0211 0
vt 0.9274 0.0521 0
vt 0.711 0.0521 0
vt 0.9653 0.0308 0
vt 0.9653 0.3043 0
vt 0.935 0.2739 0
vt 0.935 0.0612 0
vt 0.6727 0.3069 0
vt 0.6727 0.0282 0
vt 0.7038 0.0593 0
vt 0.7038 0.2758 0
vt 0.5655 0.577 0
vt 0.5655 0.3832 0
vt 0.5788 0.3832 0
vt 0.5788 0.577 0
vt 0.5412 0.38 0
vt 0.5412 0.5738 0
vt 0.5278 0.5738 0
vt 0.5278 0.38 0
vt 0.6193 0.3795 0
vt 0.6193 0.5733 0
vt 0.606 0.5733 0
vt 0.606 0.3795 0
vt 0.6334 0.577 0
vt 0.6334 0.3832 0
vt 0.6468 0.3832 0
vt 0.6468 0.577 0
vt 0.6647 0.3208 0
vt 0.6686 0.3204 0
vt 0.9699 0.3204 0
vt 0.7121 0.2766 0
vt 0.71 0.2828 0
vt 0.6786 0.3143 0
vt 0.9264 0.2766 0
vt 0.9599 0.3143 0
vt 0.9284 0.2828 0
vt 0.9717 0.3155 0
vt 0.9717 0.0196 0
vt 0.9285 0.2732 0
vt 0.9285 0.0619 0
vt 0.6647 0.0143 0
vt 0.969 0.0148 0
vt 0.6694 0.0148 0
vt 0.9259 0.0585 0
vt 0.7125 0.0585 0
vt 0.6665 0.0177 0
vt 0.6665 0.3174 0
vt 0.7101 0.0609 0
vt 0.7101 0.2743 0
vt 0.5635 0.0306 0
vt 0.5533 0.2993 0
vt 0.5172 0.2977 0
vt 0.5274 0.0291 0
vt 0.5797 0.0257 0
vt 0.5694 0.306 0
vt 0.5616 0.3007 0
vt 0.5719 0.0297 0
vt 0.5577 0.3179 0
vt 0.511 0.317 0
vt 0.5167 0.308 0
vt 0.5534 0.3099 0
vt 0.5011 0.3027 0
vt 0.5113 0.0224 0
vt 0.5192 0.0277 0
vt 0.5088 0.2987 0
vt 0.523 0.0105 0
vt 0.5697 0.0114 0
vt 0.564 0.0204 0
vt 0.5273 0.0185 0
vt 0.5675 0.0304 0
vt 0.5641 0.0253 0
vt 0.5666 0.0267 0
vt 0.5536 0.3046 0
vt 0.5573 0.2998 0
vt 0.5562 0.3034 0
vt 0.5132 0.298 0
vt 0.5166 0.3031 0
vt 0.5141 0.3017 0
vt 0.5271 0.0238 0
vt 0.5234 0.0286 0
vt 0.5246 0.025 0
vt 0.5575 0.3058 0
vt 0.5681 0.0243 0
vt 0.5127 0.304 0
vt 0.5233 0.0226 0
vt 0.5646 0.3127 0
vt 0.5759 0.0179 0
vt 0.5049 0.3105 0
vt 0.5161 0.0157 0
vt 0.3946 0.695 0
vt 0.3845 0.9636 0
vt 0.3484 0.9621 0
vt 0.3585 0.6935 0
vt 0.4108 0.69 0
vt 0.4005 0.9704 0
vt 0.3927 0.965 0
vt 0.4031 0.6941 0
vt 0.3889 0.9823 0
vt 0.3421 0.9814 0
vt 0.3478 0.9724 0
vt 0.3846 0.9743 0
vt 0.3322 0.9671 0
vt 0.3425 0.6867 0
vt 0.3503 0.692 0
vt 0.3399 0.963 0
vt 0.3541 0.6748 0
vt 0.4008 0.6757 0
vt 0.3951 0.6847 0
vt 0.3584 0.6828 0
vt 0.3986 0.6947 0
vt 0.3953 0.6896 0
vt 0.3977 0.691 0
vt 0.3847 0.969 0
vt 0.3885 0.9641 0
vt 0.3873 0.9677 0
vt 0.3443 0.9623 0
vt 0.3477 0.9675 0
vt 0.3453 0.9661 0
vt 0.3582 0.6881 0
vt 0.3545 0.693 0
vt 0.3557 0.6893 0
vt 0.3886 0.9701 0
vt 0.3992 0.6887 0
vt 0.3438 0.9684 0
vt 0.3544 0.6869 0
vt 0.3957 0.977 0
vt 0.407 0.6823 0
vt 0.336 0.9748 0
vt 0.3473 0.6801 0
vt 0.9205 0.3986 0
vt 0.9205 0.5926 0
vt 0.7265 0.5926 0
vt 0.7265 0.3986 0
vt 0.9688 0.3574 0
vt 0.9688 0.6338 0
vt 0.938 0.603 0
vt 0.938 0.3883 0
vt 0.9591 0.6406 0
vt 0.6879 0.6406 0
vt 0.718 0.6105 0
vt 0.929 0.6105 0
vt 0.6853 0.3503 0
vt 0.9617 0.3503 0
vt 0.9309 0.3811 0
vt 0.7161 0.3811 0
vt 0.5773 0.7671 0
vt 0.5773 0.9609 0
vt 0.564 0.9609 0
vt 0.564 0.7671 0
vt 0.5072 0.9544 0
vt 0.5072 0.7606 0
vt 0.5205 0.7606 0
vt 0.5205 0.9544 0
vt 0.5983 0.9563 0
vt 0.5983 0.7625 0
vt 0.6116 0.7625 0
vt 0.6116 0.9563 0
vt 0.6316 0.7652 0
vt 0.6316 0.959 0
vt 0.6182 0.959 0
vt 0.6182 0.7652 0
vt 0.6715 0.6489 0
vt 0.6715 0.3424 0
vt 0.6719 0.3462 0
vt 0.6719 0.645 0
vt 0.7154 0.3893 0
vt 0.7092 0.3873 0
vt 0.678 0.3561 0
vt 0.7154 0.6019 0
vt 0.678 0.6351 0
vt 0.7092 0.6039 0
vt 0.6587 0.3155 0
vt 0.6587 0.0196 0
vt 0.7187 0.604 0
vt 0.6767 0.6468 0
vt 0.9283 0.604 0
vt 0.9755 0.6489 0
vt 0.9703 0.6468 0
vt 0.9755 0.3424 0
vt 0.975 0.6442 0
vt 0.975 0.347 0
vt 0.9317 0.6014 0
vt 0.9317 0.3898 0
vt 0.9721 0.3441 0
vt 0.6749 0.3441 0
vt 0.9293 0.3874 0
vt 0.7177 0.3874 0
vt 0.6344 0.0306 0
vt 0.6246 0.29 0
vt 0.5897 0.2885 0
vt 0.5995 0.0291 0
vt 0.65 0.0258 0
vt 0.64 0.2965 0
vt 0.6325 0.2913 0
vt 0.6425 0.0297 0
vt 0.6288 0.3079 0
vt 0.5837 0.3071 0
vt 0.5892 0.2984 0
vt 0.6247 0.3002 0
vt 0.5741 0.2933 0
vt 0.584 0.0226 0
vt 0.5916 0.0278 0
vt 0.5815 0.2894 0
vt 0.5953 0.0111 0
vt 0.6404 0.012 0
vt 0.6349 0.0207 0
vt 0.5994 0.0189 0
vt 0.6382 0.0304 0
vt 0.635 0.0254 0
vt 0.6373 0.0268 0
vt 0.6248 0.2951 0
vt 0.6284 0.2904 0
vt 0.6273 0.2939 0
vt 0.5858 0.2887 0
vt 0.5891 0.2937 0
vt 0.5867 0.2923 0
vt 0.5992 0.024 0
vt 0.5956 0.0287 0
vt 0.5968 0.0252 0
vt 0.6285 0.2962 0
vt 0.6388 0.0245 0
vt 0.5853 0.2946 0
vt 0.5955 0.0229 0
vt 0.6354 0.3029 0
vt 0.6463 0.0183 0
vt 0.5777 0.3007 0
vt 0.5886 0.0162 0
vt 0.4751 0.6996 0
vt 0.4653 0.9589 0
vt 0.4304 0.9575 0
vt 0.4402 0.6981 0
vt 0.4907 0.6948 0
vt 0.4808 0.9654 0
vt 0.4732 0.9603 0
vt 0.4832 0.6987 0
vt 0.4695 0.9769 0
vt 0.4244 0.976 0
vt 0.4299 0.9674 0
vt 0.4654 0.9692 0
vt 0.4148 0.9622 0
vt 0.4247 0.6916 0
vt 0.4323 0.6967 0
vt 0.4223 0.9583 0
vt 0.436 0.6801 0
vt 0.4811 0.681 0
vt 0.4756 0.6897 0
vt 0.4401 0.6878 0
vt 0.4789 0.6993 0
vt 0.4757 0.6944 0
vt 0.4781 0.6957 0
vt 0.4655 0.9641 0
vt 0.4691 0.9594 0
vt 0.468 0.9629 0
vt 0.4265 0.9577 0
vt 0.4298 0.9626 0
vt 0.4274 0.9613 0
vt 0.4399 0.693 0
vt 0.4363 0.6976 0
vt 0.4375 0.6941 0
vt 0.4693 0.9652 0
vt 0.4795 0.6935 0
vt 0.426 0.9635 0
vt 0.4362 0.6918 0
vt 0.4761 0.9719 0
vt 0.487 0.6873 0
vt 0.4185 0.9697 0
vt 0.4293 0.6852 0
vt 0.0684 0.0642 0
vt 0.2668 0.0642 0
vt 0.2668 0.2626 0
vt 0.0684 0.2626 0
vt 0.0294 0.0181 0
vt 0.3058 0.0181 0
vt 0.275 0.049 0
vt 0.0603 0.049 0
vt 0.3126 0.0278 0
vt 0.3126 0.299 0
vt 0.2825 0.2689 0
vt 0.2825 0.0579 0
vt 0.0223 0.3016 0
vt 0.0223 0.0252 0
vt 0.0531 0.0561 0
vt 0.0531 0.2708 0
vt 0.5186 0.3801 0
vt 0.5186 0.5739 0
vt 0.5053 0.5739 0
vt 0.5053 0.3801 0
vt 0.5954 0.3837 0
vt 0.5954 0.5775 0
vt 0.582 0.5775 0
vt 0.582 0.3837 0
vt 0.6504 0.5739 0
vt 0.6504 0.3801 0
vt 0.6638 0.3801 0
vt 0.6638 0.5739 0
vt 0.5443 0.5742 0
vt 0.5443 0.3804 0
vt 0.5577 0.3804 0
vt 0.5577 0.5742 0
vt 0.3209 0.3154 0
vt 0.0144 0.3154 0
vt 0.0182 0.315 0
vt 0.317 0.315 0
vt 0.0613 0.2715 0
vt 0.0593 0.2777 0
vt 0.0281 0.3089 0
vt 0.2739 0.2715 0
vt 0.3071 0.3089 0
vt 0.2759 0.2777 0
vt 0.3209 0.0114 0
vt 0.3188 0.3102 0
vt 0.3188 0.0167 0
vt 0.276 0.2682 0
vt 0.276 0.0586 0
vt 0.0144 0.0114 0
vt 0.3162 0.0119 0
vt 0.019 0.0119 0
vt 0.2735 0.0552 0
vt 0.0618 0.0552 0
vt 0.0161 0.0148 0
vt 0.0161 0.312 0
vt 0.0594 0.0576 0
vt 0.0594 0.2693 0
vt 0.4778 0.0358 0
vt 0.4682 0.2895 0
vt 0.4341 0.2881 0
vt 0.4437 0.0343 0
vt 0.4931 0.0311 0
vt 0.4834 0.2959 0
vt 0.476 0.2908 0
vt 0.4858 0.0349 0
vt 0.4724 0.3071 0
vt 0.4283 0.3062 0
vt 0.4337 0.2978 0
vt 0.4683 0.2995 0
vt 0.4189 0.2927 0
vt 0.4286 0.028 0
vt 0.436 0.033 0
vt 0.4262 0.2889 0
vt 0.4396 0.0167 0
vt 0.4837 0.0176 0
vt 0.4783 0.0261 0
vt 0.4436 0.0243 0
vt 0.4816 0.0355 0
vt 0.4784 0.0307 0
vt 0.4808 0.032 0
vt 0.4685 0.2945 0
vt 0.472 0.29 0
vt 0.4709 0.2934 0
vt 0.4304 0.2883 0
vt 0.4335 0.2931 0
vt 0.4312 0.2918 0
vt 0.4435 0.0293 0
vt 0.44 0.0339 0
vt 0.4411 0.0305 0
vt 0.4721 0.2957 0
vt 0.4821 0.0298 0
vt 0.4298 0.294 0
vt 0.4398 0.0282 0
vt 0.4789 0.3022 0
vt 0.4895 0.0238 0
vt 0.4225 0.3001 0
vt 0.4331 0.0217 0
vt 0.3551 0.6202 0
vt 0.3647 0.3665 0
vt 0.3988 0.368 0
vt 0.3892 0.6217 0
vt 0.3398 0.6249 0
vt 0.3495 0.3602 0
vt 0.3569 0.3652 0
vt 0.3471 0.6211 0
vt 0.3605 0.3489 0
vt 0.4047 0.3498 0
vt 0.3993 0.3583 0
vt 0.3646 0.3565 0
vt 0.4141 0.3633 0
vt 0.4044 0.628 0
vt 0.397 0.623 0
vt 0.4068 0.3671 0
vt 0.3934 0.6393 0
vt 0.3492 0.6384 0
vt 0.3546 0.6299 0
vt 0.3893 0.6317 0
vt 0.3513 0.6205 0
vt 0.3545 0.6253 0
vt 0.3522 0.624 0
vt 0.3644 0.3615 0
vt 0.3609 0.3661 0
vt 0.362 0.3626 0
vt 0.4026 0.3677 0
vt 0.3994 0.3629 0
vt 0.4017 0.3642 0
vt 0.3895 0.6267 0
vt 0.393 0.6222 0
vt 0.3919 0.6256 0
vt 0.3608 0.3604 0
vt 0.3508 0.6262 0
vt 0.4031 0.362 0
vt 0.3931 0.6278 0
vt 0.3541 0.3539 0
vt 0.3434 0.6322 0
vt 0.4105 0.356 0
vt 0.3998 0.6343 0
vt 0.0589 0.7166 0
vt 0.2833 0.7166 0
vt 0.2833 0.941 0
vt 0.0589 0.941 0
vt 0.9346 0.9451 0
vt 0.704 0.9451 0
vt 0.704 0.7145 0
vt 0.9346 0.7145 0
vt 0.0173 0.9826 0
vt 0.0173 0.675 0
vt 0.0378 0.6956 0
vt 0.0378 0.9621 0
vt 0.3249 0.675 0
vt 0.3044 0.6956 0
vt 0.3249 0.9826 0
vt 0.3044 0.9621 0
vt 0.9749 0.6741 0
vt 0.9749 0.9854 0
vt 0.9542 0.9647 0
vt 0.9542 0.6949 0
vt 0.6636 0.9854 0
vt 0.6844 0.9647 0
vt 0.6636 0.6741 0
vt 0.6844 0.6949 0

# 470 vertex normals
vn -0.5774 0.5774 0.5774
vn -0.5774 0.5774 -0.5774
vn -0.5774 -0.5774 -0.5774
vn -0.5774 -0.5774 0.5774
vn -0.915 -0.0086 -0.4033
vn -0.915 -0.0086 0.4033
vn -0.8416 0.4684 0.2689
vn -0.841 0.4685 -0.2706
vn -0.9368 -0.3499 0.0041
vn -0.9368 0.3499 0.0041
vn -0.8668 0.2506 -0.4311
vn -0.8702 -0.24 -0.4304
vn -0.915 0.4033 -0.0086
vn -0.915 -0.4033 -0.0086
vn -0.8372 -0.2812 0.4691
vn -0.841 0.2706 0.4685
vn -0.4769 0.6241 0.6189
vn -0.5189 0.6295 -0.5783
vn -0.4992 -0.6525 -0.5701
vn -0.4339 -0.6495 0.6244
vn -0.4875 0.7484 0.4498
vn -0.4498 0.7484 -0.4875
vn -0.6708 0.4289 -0.605
vn -0.6708 0.4289 0.605
vn -0.4138 -0.8716 -0.263
vn -0.8244 -0.4887 -0.2855
vn -0.9003 0.0113 -0.4351
vn -0.4138 -0.8716 0.263
vn -0.9003 0.0113 0.4351
vn -0.8234 -0.4889 0.2881
vn -0.4783 -0.7471 0.4616
vn -0.757 0.6338 0.1588
vn -0.757 -0.6338 0.1588
vn -0.5005 0.2318 -0.8341
vn -0.5005 -0.2318 -0.8341
vn -0.4616 -0.7471 -0.4783
vn -0.7027 -0.4185 0.5754
vn -0.7027 -0.4185 -0.5754
vn -0.4452 0.8592 0.2523
vn -0.4452 0.8592 -0.2523
vn -0.6797 -0.7219 -0.1299
vn -0.6798 0.7218 -0.13
vn -0.445 -0.2524 0.8592
vn -0.445 0.2524 0.8592
vn -0.933 -0.0767 -0.3516
vn -0.933 -0.3516 -0.0767
vn -0.933 0.0766 0.3516
vn -0.933 0.3516 0.0766
vn 0 -0.4945 -0.8691
vn 0 -0.8691 -0.4946
vn -0.4115 -0.7873 -0.4591
vn -0.4115 -0.4591 -0.7873
vn 0 -0.9643 0.2649
vn 0 -0.2648 0.9643
vn -0.4652 -0.2575 0.8469
vn -0.4653 -0.8469 0.2576
vn 0 0.4946 0.8691
vn 0 0.8691 0.4946
vn -0.4115 0.7873 0.4592
vn -0.4115 0.4591 0.7873
vn 0 0.9643 -0.2648
vn 0 0.2648 -0.9643
vn -0.4653 0.2576 -0.8469
vn -0.4653 0.8469 -0.2575
vn -0.7844 -0.3 -0.5429
vn -0.8699 0.0667 -0.4887
vn -0.7492 -0.1634 -0.6418
vn -0.8699 -0.4887 0.0667
vn -0.7844 -0.5429 -0.3
vn -0.7492 -0.6418 -0.1634
vn -0.7844 0.3 0.5429
vn -0.8699 -0.0668 0.4886
vn -0.7492 0.1634 0.6419
vn -0.8699 0.4886 -0.0668
vn -0.7844 0.5429 0.3
vn -0.7493 0.6418 0.1634
vn -0.411 -0.8834 -0.2249
vn -0.411 -0.2249 -0.8834
vn -0.4109 0.225 0.8835
vn -0.411 0.8834 0.2249
vn 0 -0.9691 -0.2467
vn 0 -0.2467 -0.9691
vn 0 0.2468 0.9691
vn 0 0.9691 0.2468
vn -0.933 -0.3517 0.0766
vn -0.933 -0.0766 0.3517
vn -0.933 0.3517 -0.0766
vn -0.933 0.0767 -0.3517
vn 0 -0.8691 0.4946
vn 0 -0.4946 0.8691
vn -0.4115 -0.4591 0.7873
vn -0.4116 -0.7873 0.4591
vn 0 0.2647 0.9643
vn 0 0.9643 0.2648
vn -0.4653 0.8469 0.2575
vn -0.4653 0.2575 0.8469
vn 0 0.8691 -0.4946
vn 0 0.4946 -0.8691
vn -0.4116 0.4591 -0.7873
vn -0.4115 0.7873 -0.4592
vn 0 -0.2649 -0.9643
vn 0 -0.9643 -0.2649
vn -0.4653 -0.8469 -0.2576
vn -0.4653 -0.2576 -0.8468
vn -0.7844 -0.5428 0.3001
vn -0.8699 -0.4886 -0.0668
vn -0.7493 -0.6417 0.1634
vn -0.87 0.0669 0.4885
vn -0.7844 -0.3001 0.5429
vn -0.7493 -0.1634 0.6417
vn -0.7844 0.5429 -0.3001
vn -0.87 0.4885 0.0669
vn -0.7494 0.6416 -0.1633
vn -0.8699 -0.0668 -0.4886
vn -0.7844 0.3001 -0.5428
vn -0.7493 0.1634 -0.6417
vn -0.4109 -0.225 0.8835
vn -0.411 -0.8834 0.2249
vn -0.411 0.8834 -0.225
vn -0.411 0.2249 -0.8835
vn 0 -0.2468 0.9691
vn 0 -0.9691 0.2467
vn 0 0.9691 -0.2468
vn 0 0.2467 -0.9691
vn 0.5774 0.5774 -0.5774
vn 0.5774 -0.5774 -0.5774
vn 0.4033 -0.0086 -0.915
vn -0.4033 -0.0086 -0.915
vn -0.2689 0.4683 -0.8416
vn 0.2706 0.4685 -0.841
vn -0.004 -0.3499 -0.9368
vn -0.004 0.35 -0.9368
vn 0.431 0.2506 -0.8668
vn 0.4303 -0.2399 -0.8702
vn 0.0086 0.4033 -0.915
vn 0.0086 -0.4033 -0.915
vn -0.4691 -0.2812 -0.8372
vn -0.4685 0.2706 -0.841
vn -0.6188 0.6242 -0.477
vn 0.5783 0.6296 -0.5189
vn 0.5701 -0.6525 -0.4992
vn -0.6243 -0.6496 -0.4339
vn 0.4875 0.7484 -0.4498
vn 0.605 0.4289 -0.6708
vn -0.605 0.4289 -0.6708
vn 0.2631 -0.8715 -0.4138
vn 0.2855 -0.4886 -0.8244
vn 0.4351 0.0113 -0.9003
vn -0.2631 -0.8715 -0.4138
vn -0.4351 0.0113 -0.9003
vn -0.288 -0.4888 -0.8235
vn -0.1589 0.6338 -0.757
vn -0.1589 -0.6338 -0.757
vn 0.834 0.2318 -0.5006
vn 0.8341 -0.2318 -0.5006
vn 0.4783 -0.7471 -0.4616
vn -0.5753 -0.4186 -0.7027
vn 0.5753 -0.4186 -0.7027
vn -0.2523 0.8592 -0.4452
vn 0.2523 0.8592 -0.4452
vn 0.1298 -0.7219 -0.6797
vn 0.1298 0.7218 -0.6798
vn -0.8592 -0.2523 -0.4452
vn -0.8592 0.2523 -0.4452
vn 0.3517 -0.0767 -0.933
vn 0.0766 -0.3517 -0.933
vn -0.3517 0.0766 -0.933
vn -0.0766 0.3517 -0.933
vn 0.8691 -0.4946 -0
vn 0.4946 -0.8691 -0
vn 0.4591 -0.7873 -0.4116
vn 0.7873 -0.4591 -0.4115
vn -0.2649 -0.9643 -0
vn -0.9643 -0.2649 -0
vn -0.8469 -0.2576 -0.4653
vn -0.2576 -0.8469 -0.4653
vn -0.8691 0.4946 -0
vn -0.4946 0.8691 -0
vn -0.4592 0.7873 -0.4115
vn -0.7873 0.4591 -0.4116
vn 0.2648 0.9643 -0
vn 0.9643 0.2647 -0
vn 0.8469 0.2575 -0.4653
vn 0.2575 0.8469 -0.4653
vn 0.5429 -0.3001 -0.7844
vn 0.4885 0.0669 -0.87
vn 0.6417 -0.1634 -0.7493
vn -0.0668 -0.4886 -0.8699
vn 0.3001 -0.5428 -0.7844
vn 0.1634 -0.6417 -0.7493
vn -0.5428 0.3001 -0.7844
vn -0.4886 -0.0668 -0.8699
vn -0.6417 0.1634 -0.7493
vn 0.0669 0.4885 -0.87
vn -0.3001 0.5429 -0.7844
vn -0.1633 0.6416 -0.7494
vn 0.2249 -0.8834 -0.411
vn 0.8835 -0.225 -0.4109
vn -0.8835 0.2249 -0.411
vn -0.225 0.8834 -0.411
vn 0.2467 -0.9691 -0
vn 0.9691 -0.2468 -0
vn -0.9691 0.2467 -0
vn -0.2468 0.9691 -0
vn -0.0766 -0.3516 -0.933
vn -0.3516 -0.0767 -0.933
vn 0.0766 0.3516 -0.933
vn 0.3516 0.0767 -0.933
vn -0.4946 -0.8691 -0
vn -0.8691 -0.4946 -0
vn -0.7873 -0.4591 -0.4115
vn -0.4591 -0.7873 -0.4115
vn -0.9643 0.2649 -0
vn -0.2649 0.9643 -0
vn -0.2576 0.8469 -0.4653
vn -0.8469 0.2576 -0.4653
vn 0.4946 0.8691 -0
vn 0.8691 0.4946 -0
vn 0.7873 0.4591 -0.4114
vn 0.4592 0.7873 -0.4115
vn 0.9643 -0.2648 -0
vn 0.2649 -0.9643 -0
vn 0.2576 -0.8469 -0.4653
vn 0.8469 -0.2575 -0.4652
vn -0.3001 -0.5428 -0.7844
vn 0.0668 -0.4886 -0.8699
vn -0.1635 -0.6418 -0.7492
vn -0.4886 0.0668 -0.8699
vn -0.5428 -0.3001 -0.7844
vn -0.6418 -0.1635 -0.7492
vn 0.3001 0.5428 -0.7844
vn -0.0669 0.4886 -0.87
vn 0.1634 0.6418 -0.7493
vn 0.4886 -0.0669 -0.87
vn 0.5429 0.3001 -0.7844
vn 0.6419 0.1634 -0.7492
vn -0.8835 -0.2249 -0.4109
vn -0.2249 -0.8835 -0.4109
vn 0.225 0.8835 -0.4109
vn 0.8835 0.225 -0.4108
vn -0.9691 -0.2467 -0
vn -0.2467 -0.9691 -0
vn 0.2468 0.9691 -0
vn 0.9691 0.2468 -0
vn 0.5774 0.5774 0.5774
vn 0.5774 -0.5774 0.5774
vn 0.915 -0.0086 0.4033
vn 0.915 -0.0086 -0.4033
vn 0.8416 0.4684 -0.2689
vn 0.841 0.4685 0.2706
vn 0.9368 -0.3499 -0.0041
vn 0.9368 0.3499 -0.0041
vn 0.8668 0.2506 0.4311
vn 0.8702 -0.24 0.4304
vn 0.915 0.4033 0.0086
vn 0.915 -0.4033 0.0086
vn 0.8372 -0.2812 -0.4691
vn 0.841 0.2706 -0.4685
vn 0.4769 0.6241 -0.6189
vn 0.5189 0.6295 0.5783
vn 0.4992 -0.6525 0.5701
vn 0.4339 -0.6495 -0.6244
vn 0.4498 0.7484 0.4875
vn 0.6708 0.4289 0.605
vn 0.6708 0.4289 -0.605
vn 0.4138 -0.8716 0.263
vn 0.8244 -0.4887 0.2855
vn 0.9003 0.0113 0.4351
vn 0.4138 -0.8716 -0.263
vn 0.9003 0.0113 -0.4351
vn 0.8234 -0.4889 -0.2881
vn 0.757 0.6338 -0.1588
vn 0.757 -0.6338 -0.1588
vn 0.5005 0.2318 0.8341
vn 0.5005 -0.2318 0.8341
vn 0.4616 -0.7471 0.4783
vn 0.7027 -0.4185 -0.5754
vn 0.7027 -0.4185 0.5754
vn 0.4452 0.8592 -0.2523
vn 0.4452 0.8592 0.2523
vn 0.6797 -0.7219 0.1299
vn 0.6798 0.7218 0.13
vn 0.445 -0.2524 -0.8592
vn 0.445 0.2524 -0.8592
vn 0.933 -0.0767 0.3516
vn 0.933 -0.3516 0.0767
vn 0.933 0.0766 -0.3516
vn 0.933 0.3516 -0.0766
vn 0 -0.4945 0.8691
vn 0.4115 -0.7873 0.4591
vn 0.4115 -0.4591 0.7873
vn 0 -0.9643 -0.2648
vn 0 -0.2648 -0.9643
vn 0.4653 -0.2575 -0.8469
vn 0.4653 -0.8469 -0.2576
vn 0.4115 0.7873 -0.4592
vn 0.4114 0.4591 -0.7873
vn 0 0.9643 0.2649
vn 0 0.2649 0.9643
vn 0.4653 0.2576 0.8469
vn 0.4652 0.8469 0.2576
vn 0.7844 -0.3001 0.5428
vn 0.8699 0.0668 0.4886
vn 0.7492 -0.1635 0.6418
vn 0.8699 -0.4886 -0.0668
vn 0.7844 -0.5428 0.3001
vn 0.7492 -0.6418 0.1635
vn 0.7844 0.3001 -0.5428
vn 0.87 -0.0669 -0.4886
vn 0.7492 0.1634 -0.6419
vn 0.87 0.4886 0.0669
vn 0.7844 0.5428 -0.3001
vn 0.7493 0.6418 -0.1634
vn 0.4109 -0.8835 0.2249
vn 0.4109 -0.2249 0.8835
vn 0.4108 0.225 -0.8835
vn 0.4109 0.8835 -0.225
vn 0 -0.2467 0.9691
vn 0 0.2468 -0.9691
vn 0.933 -0.3517 -0.0766
vn 0.933 -0.0766 -0.3517
vn 0.933 0.3517 0.0766
vn 0.933 0.0767 0.3517
vn 0 -0.4946 -0.8691
vn 0.4115 -0.4591 -0.7873
vn 0.4116 -0.7873 -0.4591
vn 0 0.2649 -0.9643
vn 0 0.9643 -0.2649
vn 0.4653 0.8468 -0.2576
vn 0.4653 0.2576 -0.8468
vn 0.4116 0.4591 0.7873
vn 0.4115 0.7873 0.4592
vn 0 -0.2649 0.9643
vn 0.4653 -0.8469 0.2576
vn 0.4653 -0.2576 0.8468
vn 0.7844 -0.5428 -0.3001
vn 0.8699 -0.4887 0.0668
vn 0.7493 -0.6417 -0.1634
vn 0.87 0.0669 -0.4885
vn 0.7844 -0.3001 -0.5429
vn 0.7493 -0.1634 -0.6417
vn 0.7844 0.5429 0.3001
vn 0.87 0.4885 -0.0669
vn 0.7494 0.6416 0.1633
vn 0.8699 -0.0668 0.4887
vn 0.7844 0.3001 0.5428
vn 0.7493 0.1634 0.6417
vn 0.4109 -0.225 -0.8835
vn 0.411 -0.8834 -0.2249
vn 0.411 0.8834 0.225
vn 0.411 0.2249 0.8835
vn 0 -0.2468 -0.9691
vn 0 0.2467 0.9691
vn -0.4033 -0.0086 0.915
vn 0.4033 -0.0086 0.915
vn 0.2689 0.4684 0.8416
vn -0.2706 0.4685 0.841
vn 0.004 -0.3499 0.9368
vn 0.004 0.35 0.9368
vn -0.431 0.2506 0.8668
vn -0.4303 -0.2399 0.8702
vn -0.0086 0.4033 0.915
vn -0.0086 -0.4033 0.915
vn 0.4691 -0.2812 0.8372
vn 0.4685 0.2706 0.841
vn 0.6188 0.6242 0.477
vn -0.5783 0.6296 0.5189
vn -0.5701 -0.6525 0.4992
vn 0.6243 -0.6496 0.4339
vn -0.605 0.4289 0.6708
vn 0.605 0.4289 0.6708
vn -0.2631 -0.8715 0.4138
vn -0.2855 -0.4886 0.8244
vn -0.4351 0.0113 0.9003
vn 0.2631 -0.8715 0.4138
vn 0.4351 0.0113 0.9003
vn 0.288 -0.4888 0.8235
vn 0.1589 0.6338 0.757
vn 0.1589 -0.6338 0.757
vn -0.834 0.2318 0.5006
vn -0.8341 -0.2318 0.5006
vn 0.5753 -0.4186 0.7027
vn -0.5753 -0.4186 0.7027
vn 0.2523 0.8592 0.4452
vn -0.2523 0.8592 0.4452
vn -0.1298 -0.7219 0.6797
vn -0.1298 0.7219 0.6798
vn 0.8592 -0.2523 0.4452
vn 0.8592 0.2523 0.4452
vn -0.3517 -0.0767 0.9329
vn -0.0766 -0.3517 0.933
vn 0.3517 0.0766 0.933
vn 0.0767 0.3517 0.933
vn -0.4591 -0.7873 0.4116
vn -0.7873 -0.4591 0.4115
vn 0.9643 -0.2649 -0
vn 0.8469 -0.2576 0.4653
vn 0.2576 -0.8469 0.4653
vn 0.4592 0.7873 0.4115
vn 0.7873 0.4591 0.4116
vn -0.9643 0.2648 -0
vn -0.8469 0.2575 0.4653
vn -0.2576 0.8468 0.4653
vn -0.5429 -0.3001 0.7844
vn -0.4885 0.0669 0.87
vn -0.6417 -0.1634 0.7493
vn 0.0668 -0.4886 0.8699
vn -0.3001 -0.5428 0.7844
vn -0.1634 -0.6417 0.7493
vn 0.5428 0.3001 0.7844
vn 0.4886 -0.0668 0.8699
vn 0.6417 0.1634 0.7493
vn -0.0669 0.4885 0.87
vn 0.3001 0.5429 0.7844
vn 0.1633 0.6416 0.7494
vn -0.2249 -0.8835 0.411
vn -0.8835 -0.225 0.4109
vn 0.8835 0.2249 0.411
vn 0.225 0.8834 0.411
vn -0.9691 -0.2468 -0
vn 0.9691 0.2467 -0
vn 0.0767 -0.3516 0.933
vn 0.3516 -0.0767 0.933
vn -0.0766 0.3516 0.933
vn -0.3516 0.0766 0.933
vn 0.7873 -0.4591 0.4115
vn 0.4591 -0.7873 0.4115
vn 0.9643 0.2649 -0
vn 0.2649 0.9643 -0
vn 0.2576 0.8469 0.4653
vn 0.8469 0.2576 0.4652
vn -0.7873 0.4591 0.4115
vn -0.4592 0.7873 0.4115
vn -0.9643 -0.2648 -0
vn -0.2576 -0.8469 0.4652
vn -0.8469 -0.2575 0.4652
vn 0.3001 -0.5428 0.7844
vn -0.0668 -0.4886 0.8699
vn 0.1635 -0.6418 0.7492
vn 0.4887 0.0668 0.8699
vn 0.5428 -0.3001 0.7844
vn 0.6418 -0.1635 0.7492
vn -0.3001 0.5428 0.7844
vn 0.0669 0.4886 0.87
vn -0.1634 0.6418 0.7493
vn -0.4886 -0.0669 0.87
vn -0.5429 0.3001 0.7844
vn -0.6419 0.1634 0.7492
vn 0.8835 -0.2249 0.4109
vn 0.2249 -0.8835 0.4109
vn -0.225 0.8835 0.4109
vn -0.8835 0.225 0.4108
vn 0.9691 -0.2467 -0
vn -0.9691 0.2468 -0
vn 0.3011 0.9048 -0.3011
vn -0.3011 0.9048 -0.3011
vn -0.3011 0.9048 0.3011
vn 0.3011 0.9048 0.3011
vn 0.2058 -0.9567 0.2058
vn -0.2058 -0.9567 0.2058
vn -0.2058 -0.9567 -0.2058
vn 0.2058 -0.9567 -0.2058
vn 0.1105 0.9877 -0.1105
vn 0.1105 0.9877 0.1105
vn -0.1105 0.9877 -0.1105
vn -0.1105 0.9877 0.1105
vn 0.0716 -0.9949 0.0716
vn 0.0716 -0.9949 -0.0716
vn -0.0716 -0.9949 0.0716
vn -0.0716 -0.9949 -0.0716

# Mesh 'g Crate_Lowfix_Crate_Lowfix' with 892 faces
g g Crate_Lowfix_Crate_Lowfix
usemtl DefaultMaterial
f  1/1/1 2/2/2 3/3/3
f  3/3/3 4/4/4 1/1/1
f  5/5/5 6/6/6 7/7/7
f  7/7/7 8/8/8 5/5/5
f  9/9/9 10/10/10 11/11/11
f  11/11/11 12/12/12 9/9/9
f  13/13/13 14/14/14 15/15/15
f  15/15/15 16/16/16 13/13/13
f  17/17/17 18/18/18 2/19/2
f  2/19/2 1/20/1 17/17/17
f  18/21/18 19/22/19 3/23/3
f  3/23/3 2/24/2 18/21/18
f  19/25/19 20/26/20 4/27/4
f  4/27/4 3/28/3 19/25/19
f  20/29/20 17/30/17 1/31/1
f  1/31/1 4/32/4 20/29/20
f  21/33/21 22/34/22 23/35/23
f  23/35/23 24/36/24 21/33/21
f  22/34/22 20/37/20 25/38/25
f  25/38/25 26/39/26 22/34/22
f  23/35/23 22/34/22 26/39/26
f  26/39/26 27/40/27 23/35/23
f  20/37/20 19/41/19 28/42/28
f  28/42/28 25/38/25 20/37/20
f  19/41/19 21/33/21 24/36/24
f  24/36/24 29/43/29 19/41/19
f  28/42/28 19/41/19 29/43/29
f  29/43/29 30/44/30 28/42/28
f  27/40/27 26/39/26 30/44/30
f  30/44/30 29/43/29 27/40/27
f  31/45/31 21/33/21 32/46/32
f  32/46/32 33/47/33 31/45/31
f  21/33/21 19/41/19 34/48/34
f  34/48/34 11/11/11 21/33/21
f  32/46/32 21/33/21 11/11/11
f  11/11/11 10/10/10 32/46/32
f  19/41/19 18/49/18 35/50/35
f  35/50/35 34/48/34 19/41/19
f  18/49/18 31/45/31 33/47/33
f  33/47/33 9/9/9 18/49/18
f  35/50/35 18/49/18 9/9/9
f  9/9/9 12/12/12 35/50/35
f  36/51/36 31/45/31 37/52/37
f  37/52/37 38/53/38 36/51/36
f  31/45/31 18/49/18 39/54/39
f  39/54/39 7/7/7 31/45/31
f  37/52/37 31/45/31 7/7/7
f  7/7/7 6/6/6 37/52/37
f  18/49/18 17/55/17 40/56/40
f  40/56/40 39/54/39 18/49/18
f  17/55/17 36/51/36 38/53/38
f  38/53/38 5/5/5 17/55/17
f  40/56/40 17/55/17 5/5/5
f  5/5/5 8/8/8 40/56/40
f  22/57/22 36/58/36 41/59/41
f  41/59/41 42/60/42 22/57/22
f  36/51/36 17/55/17 43/61/43
f  43/61/43 15/15/15 36/51/36
f  41/62/41 36/51/36 15/15/15
f  15/15/15 14/14/14 41/62/41
f  17/55/17 20/37/20 44/63/44
f  44/63/44 43/61/43 17/55/17
f  20/37/20 22/34/22 42/64/42
f  42/64/42 13/13/13 20/37/20
f  44/63/44 20/37/20 13/13/13
f  13/13/13 16/16/16 44/63/44
f  23/35/23 27/40/27 29/43/29
f  29/43/29 24/36/24 23/35/23
f  28/42/28 30/44/30 26/39/26
f  26/39/26 25/38/25 28/42/28
f  9/9/9 33/47/33 32/46/32
f  32/46/32 10/10/10 9/9/9
f  11/11/11 34/48/34 35/50/35
f  35/50/35 12/12/12 11/11/11
f  5/5/5 38/53/38 37/52/37
f  37/52/37 6/6/6 5/5/5
f  7/7/7 39/54/39 40/56/40
f  40/56/40 8/8/8 7/7/7
f  13/13/13 42/64/42 41/62/41
f  41/62/41 14/14/14 13/13/13
f  15/15/15 43/61/43 44/63/44
f  44/63/44 16/16/16 15/15/15
f  45/65/45 46/66/46 47/67/47
f  47/67/47 48/68/48 45/65/45
f  49/69/49 50/70/50 51/71/51
f  51/71/51 52/72/52 49/69/49
f  53/73/53 54/74/54 55/75/55
f  55/75/55 56/76/56 53/73/53
f  57/77/57 58/78/58 59/79/59
f  59/79/59 60/80/60 57/77/57
f  61/81/61 62/82/62 63/83/63
f  63/83/63 64/84/64 61/81/61
f  65/85/65 45/65/45 66/86/66
f  66/86/66 67/87/67 65/85/65
f  68/88/68 46/66/46 69/89/69
f  69/89/69 70/90/70 68/88/68
f  71/91/71 47/67/47 72/92/72
f  72/92/72 73/93/73 71/91/71
f  74/94/74 48/68/48 75/95/75
f  75/95/75 76/96/76 74/94/74
f  69/89/69 51/71/51 77/97/77
f  77/97/77 70/90/70 69/89/69
f  78/98/78 52/72/52 65/85/65
f  65/85/65 67/87/67 78/98/78
f  55/75/55 79/99/79 73/93/73
f  73/93/73 72/92/72 55/75/55
f  56/76/56 68/88/68 70/90/70
f  70/90/70 77/97/77 56/76/56
f  75/95/75 59/79/59 80/100/80
f  80/100/80 76/96/76 75/95/75
f  79/99/79 60/80/60 71/91/71
f  71/91/71 73/93/73 79/99/79
f  63/83/63 78/98/78 67/87/67
f  67/87/67 66/86/66 63/83/63
f  64/84/64 74/94/74 76/96/76
f  76/96/76 80/100/80 64/84/64
f  46/66/46 45/65/45 65/85/65
f  65/85/65 69/89/69 46/66/46
f  47/67/47 46/66/46 68/88/68
f  68/88/68 72/92/72 47/67/47
f  48/68/48 47/67/47 71/91/71
f  71/91/71 75/95/75 48/68/48
f  45/65/45 48/68/48 74/94/74
f  74/94/74 66/86/66 45/65/45
f  51/71/51 50/70/50 81/101/81
f  81/101/81 77/97/77 51/71/51
f  52/72/52 51/71/51 69/89/69
f  69/89/69 65/85/65 52/72/52
f  49/69/49 52/72/52 78/98/78
f  78/98/78 82/102/82 49/69/49
f  55/75/55 54/74/54 83/103/83
f  83/103/83 79/99/79 55/75/55
f  56/76/56 55/75/55 72/92/72
f  72/92/72 68/88/68 56/76/56
f  53/73/53 56/76/56 77/97/77
f  77/97/77 81/101/81 53/73/53
f  59/79/59 58/78/58 84/104/84
f  84/104/84 80/100/80 59/79/59
f  60/80/60 59/79/59 75/95/75
f  75/95/75 71/91/71 60/80/60
f  57/77/57 60/80/60 79/99/79
f  79/99/79 83/103/83 57/77/57
f  63/83/63 62/82/62 82/102/82
f  82/102/82 78/98/78 63/83/63
f  64/84/64 63/83/63 66/86/66
f  66/86/66 74/94/74 64/84/64
f  61/81/61 64/84/64 80/100/80
f  80/100/80 84/104/84 61/81/61
f  85/105/85 86/106/86 87/107/87
f  87/107/87 88/108/88 85/105/85
f  89/109/89 90/110/90 91/111/91
f  91/111/91 92/112/92 89/109/89
f  93/113/93 94/114/94 95/115/95
f  95/115/95 96/116/96 93/113/93
f  97/117/97 98/118/98 99/119/99
f  99/119/99 100/120/100 97/117/97
f  101/121/101 102/122/102 103/123/103
f  103/123/103 104/124/104 101/121/101
f  105/125/105 85/105/85 106/126/106
f  106/126/106 107/127/107 105/125/105
f  108/128/108 86/106/86 109/129/109
f  109/129/109 110/130/110 108/128/108
f  111/131/111 87/107/87 112/132/112
f  112/132/112 113/133/113 111/131/111
f  114/134/114 88/108/88 115/135/115
f  115/135/115 116/136/116 114/134/114
f  109/129/109 91/111/91 117/137/117
f  117/137/117 110/130/110 109/129/109
f  118/138/118 92/112/92 105/125/105
f  105/125/105 107/127/107 118/138/118
f  95/115/95 119/139/119 113/133/113
f  113/133/113 112/132/112 95/115/95
f  96/116/96 108/128/108 110/130/110
f  110/130/110 117/137/117 96/116/96
f  115/135/115 99/119/99 120/140/120
f  120/140/120 116/136/116 115/135/115
f  119/139/119 100/120/100 111/131/111
f  111/131/111 113/133/113 119/139/119
f  103/123/103 118/138/118 107/127/107
f  107/127/107 106/126/106 103/123/103
f  104/124/104 114/134/114 116/136/116
f  116/136/116 120/140/120 104/124/104
f  86/106/86 85/105/85 105/125/105
f  105/125/105 109/129/109 86/106/86
f  87/107/87 86/106/86 108/128/108
f  108/128/108 112/132/112 87/107/87
f  88/108/88 87/107/87 111/131/111
f  111/131/111 115/135/115 88/108/88
f  85/105/85 88/108/88 114/134/114
f  114/134/114 106/126/106 85/105/85
f  91/111/91 90/110/90 121/141/121
f  121/141/121 117/137/117 91/111/91
f  92/112/92 91/111/91 109/129/109
f  109/129/109 105/125/105 92/112/92
f  89/109/89 92/112/92 118/138/118
f  118/138/118 122/142/122 89/109/89
f  95/115/95 94/114/94 123/143/123
f  123/143/123 119/139/119 95/115/95
f  96/116/96 95/115/95 112/132/112
f  112/132/112 108/128/108 96/116/96
f  93/113/93 96/116/96 117/137/117
f  117/137/117 121/141/121 93/113/93
f  99/119/99 98/118/98 124/144/124
f  124/144/124 120/140/120 99/119/99
f  100/120/100 99/119/99 115/135/115
f  115/135/115 111/131/111 100/120/100
f  97/117/97 100/120/100 119/139/119
f  119/139/119 123/143/123 97/117/97
f  103/123/103 102/122/102 122/142/122
f  122/142/122 118/138/118 103/123/103
f  104/124/104 103/123/103 106/126/106
f  106/126/106 114/134/114 104/124/104
f  101/121/101 104/124/104 120/140/120
f  120/140/120 124/144/124 101/121/101
f  125/145/2 126/146/125 127/147/126
f  127/147/126 128/148/3 125/145/2
f  129/149/127 130/150/128 131/151/129
f  131/151/129 132/152/130 129/149/127
f  133/153/131 134/154/132 135/155/133
f  135/155/133 136/156/134 133/153/131
f  137/157/135 138/158/136 139/159/137
f  139/159/137 140/160/138 137/157/135
f  141/161/139 142/162/140 126/163/125
f  126/163/125 125/164/2 141/161/139
f  142/165/140 143/166/141 127/167/126
f  127/167/126 126/168/125 142/165/140
f  143/169/141 144/170/142 128/171/3
f  128/171/3 127/172/126 143/169/141
f  144/173/142 141/174/139 125/175/2
f  125/175/2 128/176/3 144/173/142
f  22/57/22 145/177/143 146/178/144
f  146/178/144 147/179/145 22/57/22
f  145/177/143 144/148/142 148/180/146
f  148/180/146 149/181/147 145/177/143
f  146/178/144 145/177/143 149/181/147
f  149/181/147 150/182/148 146/178/144
f  144/148/142 143/147/141 151/183/149
f  151/183/149 148/180/146 144/148/142
f  143/147/141 22/57/22 147/179/145
f  147/179/145 152/184/150 143/147/141
f  151/183/149 143/147/141 152/184/150
f  152/184/150 153/185/151 151/183/149
f  150/182/148 149/181/147 153/185/151
f  153/185/151 152/184/150 150/182/148
f  36/58/36 22/57/22 154/186/152
f  154/186/152 155/187/153 36/58/36
f  22/57/22 143/147/141 156/188/154
f  156/188/154 135/155/133 22/57/22
f  154/186/152 22/57/22 135/155/133
f  135/155/133 134/154/132 154/186/152
f  143/147/141 142/146/140 157/189/155
f  157/189/155 156/188/154 143/147/141
f  142/146/140 36/58/36 155/187/153
f  155/187/153 133/153/131 142/146/140
f  157/189/155 142/146/140 133/153/131
f  133/153/131 136/156/134 157/189/155
f  158/190/156 36/58/36 159/191/157
f  159/191/157 160/192/158 158/190/156
f  36/58/36 142/146/140 161/193/159
f  161/193/159 131/151/129 36/58/36
f  159/191/157 36/58/36 131/151/129
f  131/151/129 130/150/128 159/191/157
f  142/146/140 141/145/139 162/194/160
f  162/194/160 161/193/159 142/146/140
f  141/145/139 158/190/156 160/192/158
f  160/192/158 129/149/127 141/145/139
f  162/194/160 141/145/139 129/149/127
f  129/149/127 132/152/130 162/194/160
f  145/177/143 158/190/156 163/195/161
f  163/195/161 164/196/162 145/177/143
f  158/190/156 141/145/139 165/197/163
f  165/197/163 139/159/137 158/190/156
f  163/195/161 158/190/156 139/159/137
f  139/159/137 138/158/136 163/195/161
f  141/145/139 144/148/142 166/198/164
f  166/198/164 165/197/163 141/145/139
f  144/148/142 145/177/143 164/196/162
f  164/196/162 137/157/135 144/148/142
f  166/198/164 144/148/142 137/157/135
f  137/157/135 140/160/138 166/198/164
f  146/178/144 150/182/148 152/184/150
f  152/184/150 147/179/145 146/178/144
f  151/183/149 153/185/151 149/181/147
f  149/181/147 148/180/146 151/183/149
f  133/153/131 155/187/153 154/186/152
f  154/186/152 134/154/132 133/153/131
f  135/155/133 156/188/154 157/189/155
f  157/189/155 136/156/134 135/155/133
f  129/149/127 160/192/158 159/191/157
f  159/191/157 130/150/128 129/149/127
f  131/151/129 161/193/159 162/194/160
f  162/194/160 132/152/130 131/151/129
f  137/157/135 164/196/162 163/195/161
f  163/195/161 138/158/136 137/157/135
f  139/159/137 165/197/163 166/198/164
f  166/198/164 140/160/138 139/159/137
f  167/199/165 168/200/166 169/201/167
f  169/201/167 170/202/168 167/199/165
f  171/203/169 172/204/170 173/205/171
f  173/205/171 174/206/172 171/203/169
f  175/207/173 176/208/174 177/209/175
f  177/209/175 178/210/176 175/207/173
f  179/211/177 180/212/178 181/213/179
f  181/213/179 182/214/180 179/211/177
f  183/215/181 184/216/182 185/217/183
f  185/217/183 186/218/184 183/215/181
f  187/219/185 167/199/165 188/220/186
f  188/220/186 189/221/187 187/219/185
f  190/222/188 168/200/166 191/223/189
f  191/223/189 192/224/190 190/222/188
f  193/225/191 169/201/167 194/226/192
f  194/226/192 195/227/193 193/225/191
f  196/228/194 170/202/168 197/229/195
f  197/229/195 198/230/196 196/228/194
f  191/223/189 173/205/171 199/231/197
f  199/231/197 192/224/190 191/223/189
f  200/232/198 174/206/172 187/219/185
f  187/219/185 189/221/187 200/232/198
f  177/209/175 201/233/199 195/227/193
f  195/227/193 194/226/192 177/209/175
f  178/210/176 190/222/188 192/224/190
f  192/224/190 199/231/197 178/210/176
f  197/229/195 181/213/179 202/234/200
f  202/234/200 198/230/196 197/229/195
f  201/233/199 182/214/180 193/225/191
f  193/225/191 195/227/193 201/233/199
f  185/217/183 200/232/198 189/221/187
f  189/221/187 188/220/186 185/217/183
f  186/218/184 196/228/194 198/230/196
f  198/230/196 202/234/200 186/218/184
f  168/200/166 167/199/165 187/219/185
f  187/219/185 191/223/189 168/200/166
f  169/201/167 168/200/166 190/222/188
f  190/222/188 194/226/192 169/201/167
f  170/202/168 169/201/167 193/225/191
f  193/225/191 197/229/195 170/202/168
f  167/199/165 170/202/168 196/228/194
f  196/228/194 188/220/186 167/199/165
f  173/205/171 172/204/170 203/235/201
f  203/235/201 199/231/197 173/205/171
f  174/206/172 173/205/171 191/223/189
f  191/223/189 187/219/185 174/206/172
f  171/203/169 174/206/172 200/232/198
f  200/232/198 204/236/202 171/203/169
f  177/209/175 176/208/174 205/237/203
f  205/237/203 201/233/199 177/209/175
f  178/210/176 177/209/175 194/226/192
f  194/226/192 190/222/188 178/210/176
f  175/207/173 178/210/176 199/231/197
f  199/231/197 203/235/201 175/207/173
f  181/213/179 180/212/178 206/238/204
f  206/238/204 202/234/200 181/213/179
f  182/214/180 181/213/179 197/229/195
f  197/229/195 193/225/191 182/214/180
f  179/211/177 182/214/180 201/233/199
f  201/233/199 205/237/203 179/211/177
f  185/217/183 184/216/182 204/236/202
f  204/236/202 200/232/198 185/217/183
f  186/218/184 185/217/183 188/220/186
f  188/220/186 196/228/194 186/218/184
f  183/215/181 186/218/184 202/234/200
f  202/234/200 206/238/204 183/215/181
f  207/239/205 208/240/206 209/241/207
f  209/241/207 210/242/208 207/239/205
f  211/243/209 212/244/210 213/245/211
f  213/245/211 214/246/212 211/243/209
f  215/247/213 216/248/214 217/249/215
f  217/249/215 218/250/216 215/247/213
f  219/251/217 220/252/218 221/253/219
f  221/253/219 222/254/220 219/251/217
f  223/255/221 224/256/222 225/257/223
f  225/257/223 226/258/224 223/255/221
f  227/259/225 207/239/205 228/260/226
f  228/260/226 229/261/227 227/259/225
f  230/262/228 208/240/206 231/263/229
f  231/263/229 232/264/230 230/262/228
f  233/265/231 209/241/207 234/266/232
f  234/266/232 235/267/233 233/265/231
f  236/268/234 210/242/208 237/269/235
f  237/269/235 238/270/236 236/268/234
f  231/263/229 213/245/211 239/271/237
f  239/271/237 232/264/230 231/263/229
f  240/272/238 214/246/212 227/259/225
f  227/259/225 229/261/227 240/272/238
f  217/249/215 241/273/239 235/267/233
f  235/267/233 234/266/232 217/249/215
f  218/250/216 230/262/228 232/264/230
f  232/264/230 239/271/237 218/250/216
f  237/269/235 221/253/219 242/274/240
f  242/274/240 238/270/236 237/269/235
f  241/273/239 222/254/220 233/265/231
f  233/265/231 235/267/233 241/273/239
f  225/257/223 240/272/238 229/261/227
f  229/261/227 228/260/226 225/257/223
f  226/258/224 236/268/234 238/270/236
f  238/270/236 242/274/240 226/258/224
f  208/240/206 207/239/205 227/259/225
f  227/259/225 231/263/229 208/240/206
f  209/241/207 208/240/206 230/262/228
f  230/262/228 234/266/232 209/241/207
f  210/242/208 209/241/207 233/265/231
f  233/265/231 237/269/235 210/242/208
f  207/239/205 210/242/208 236/268/234
f  236/268/234 228/260/226 207/239/205
f  213/245/211 212/244/210 243/275/241
f  243/275/241 239/271/237 213/245/211
f  214/246/212 213/245/211 231/263/229
f  231/263/229 227/259/225 214/246/212
f  211/243/209 214/246/212 240/272/238
f  240/272/238 244/276/242 211/243/209
f  217/249/215 216/248/214 245/277/243
f  245/277/243 241/273/239 217/249/215
f  218/250/216 217/249/215 234/266/232
f  234/266/232 230/262/228 218/250/216
f  215/247/213 218/250/216 239/271/237
f  239/271/237 243/275/241 215/247/213
f  221/253/219 220/252/218 246/278/244
f  246/278/244 242/274/240 221/253/219
f  222/254/220 221/253/219 237/269/235
f  237/269/235 233/265/231 222/254/220
f  219/251/217 222/254/220 241/273/239
f  241/273/239 245/277/243 219/251/217
f  225/257/223 224/256/222 244/276/242
f  244/276/242 240/272/238 225/257/223
f  226/258/224 225/257/223 228/260/226
f  228/260/226 236/268/234 226/258/224
f  223/255/221 226/258/224 242/274/240
f  242/274/240 246/278/244 223/255/221
f  247/279/125 248/280/245 249/281/246
f  249/281/246 250/282/126 247/279/125
f  251/283/247 252/284/248 253/285/249
f  253/285/249 254/286/250 251/283/247
f  255/287/251 256/288/252 257/289/253
f  257/289/253 258/290/254 255/287/251
f  259/291/255 260/292/256 261/293/257
f  261/293/257 262/294/258 259/291/255
f  263/295/259 264/296/260 248/297/245
f  248/297/245 247/298/125 263/295/259
f  264/299/260 265/300/261 249/301/246
f  249/301/246 248/302/245 264/299/260
f  265/303/261 266/304/262 250/305/126
f  250/305/126 249/306/246 265/303/261
f  266/307/262 263/308/259 247/309/125
f  247/309/125 250/310/126 266/307/262
f  145/311/143 267/312/263 268/313/264
f  268/313/264 269/314/265 145/311/143
f  267/312/263 266/282/262 270/315/266
f  270/315/266 271/316/267 267/312/263
f  268/313/264 267/312/263 271/316/267
f  271/316/267 272/317/268 268/313/264
f  266/282/262 265/281/261 273/318/269
f  273/318/269 270/315/266 266/282/262
f  265/281/261 145/311/143 269/314/265
f  269/314/265 274/319/270 265/281/261
f  273/318/269 265/281/261 274/319/270
f  274/319/270 275/320/271 273/318/269
f  272/317/268 271/316/267 275/320/271
f  275/320/271 274/319/270 272/317/268
f  158/190/156 145/177/143 276/321/272
f  276/321/272 277/322/273 158/190/156
f  145/311/143 265/281/261 278/323/274
f  278/323/274 257/289/253 145/311/143
f  276/324/272 145/311/143 257/289/253
f  257/289/253 256/288/252 276/324/272
f  265/281/261 264/280/260 279/325/275
f  279/325/275 278/323/274 265/281/261
f  264/280/260 158/326/156 277/327/273
f  277/327/273 255/287/251 264/280/260
f  279/325/275 264/280/260 255/287/251
f  255/287/251 258/290/254 279/325/275
f  280/328/276 158/326/156 281/329/277
f  281/329/277 282/330/278 280/328/276
f  158/326/156 264/280/260 283/331/279
f  283/331/279 253/285/249 158/326/156
f  281/329/277 158/326/156 253/285/249
f  253/285/249 252/284/248 281/329/277
f  264/280/260 263/279/259 284/332/280
f  284/332/280 283/331/279 264/280/260
f  263/279/259 280/328/276 282/330/278
f  282/330/278 251/283/247 263/279/259
f  284/332/280 263/279/259 251/283/247
f  251/283/247 254/286/250 284/332/280
f  267/312/263 280/328/276 285/333/281
f  285/333/281 286/334/282 267/312/263
f  280/328/276 263/279/259 287/335/283
f  287/335/283 261/293/257 280/328/276
f  285/333/281 280/328/276 261/293/257
f  261/293/257 260/292/256 285/333/281
f  263/279/259 266/282/262 288/336/284
f  288/336/284 287/335/283 263/279/259
f  266/282/262 267/312/263 286/334/282
f  286/334/282 259/291/255 266/282/262
f  288/336/284 266/282/262 259/291/255
f  259/291/255 262/294/258 288/336/284
f  268/313/264 272/317/268 274/319/270
f  274/319/270 269/314/265 268/313/264
f  273/318/269 275/320/271 271/316/267
f  271/316/267 270/315/266 273/318/269
f  255/287/251 277/327/273 276/324/272
f  276/324/272 256/288/252 255/287/251
f  257/289/253 278/323/274 279/325/275
f  279/325/275 258/290/254 257/289/253
f  251/283/247 282/330/278 281/329/277
f  281/329/277 252/284/248 251/283/247
f  253/285/249 283/331/279 284/332/280
f  284/332/280 254/286/250 253/285/249
f  259/291/255 286/334/282 285/333/281
f  285/333/281 260/292/256 259/291/255
f  261/293/257 287/335/283 288/336/284
f  288/336/284 262/294/258 261/293/257
f  289/337/285 290/338/286 291/339/287
f  291/339/287 292/340/288 289/337/285
f  293/341/289 294/342/89 295/343/290
f  295/343/290 296/344/291 293/341/289
f  297/345/292 298/346/293 299/347/294
f  299/347/294 300/348/295 297/345/292
f  301/349/98 302/350/97 303/351/296
f  303/351/296 304/352/297 301/349/98
f  305/353/298 306/354/299 307/355/300
f  307/355/300 308/356/301 305/353/298
f  309/357/302 289/337/285 310/358/303
f  310/358/303 311/359/304 309/357/302
f  312/360/305 290/338/286 313/361/306
f  313/361/306 314/362/307 312/360/305
f  315/363/308 291/339/287 316/364/309
f  316/364/309 317/365/310 315/363/308
f  318/366/311 292/340/288 319/367/312
f  319/367/312 320/368/313 318/366/311
f  313/361/306 295/343/290 321/369/314
f  321/369/314 314/362/307 313/361/306
f  322/370/315 296/344/291 309/357/302
f  309/357/302 311/359/304 322/370/315
f  299/347/294 323/371/316 317/365/310
f  317/365/310 316/364/309 299/347/294
f  300/348/295 312/360/305 314/362/307
f  314/362/307 321/369/314 300/348/295
f  319/367/312 303/351/296 324/372/317
f  324/372/317 320/368/313 319/367/312
f  323/371/316 304/352/297 315/363/308
f  315/363/308 317/365/310 323/371/316
f  307/355/300 322/370/315 311/359/304
f  311/359/304 310/358/303 307/355/300
f  308/356/301 318/366/311 320/368/313
f  320/368/313 324/372/317 308/356/301
f  290/338/286 289/337/285 309/357/302
f  309/357/302 313/361/306 290/338/286
f  291/339/287 290/338/286 312/360/305
f  312/360/305 316/364/309 291/339/287
f  292/340/288 291/339/287 315/363/308
f  315/363/308 319/367/312 292/340/288
f  289/337/285 292/340/288 318/366/311
f  318/366/311 310/358/303 289/337/285
f  295/343/290 294/342/89 325/373/122
f  325/373/122 321/369/314 295/343/290
f  296/344/291 295/343/290 313/361/306
f  313/361/306 309/357/302 296/344/291
f  293/341/289 296/344/291 322/370/315
f  322/370/315 326/374/318 293/341/289
f  299/347/294 298/346/293 327/375/319
f  327/375/319 323/371/316 299/347/294
f  300/348/295 299/347/294 316/364/309
f  316/364/309 312/360/305 300/348/295
f  297/345/292 300/348/295 321/369/314
f  321/369/314 325/373/122 297/345/292
f  303/351/296 302/350/97 328/376/123
f  328/376/123 324/372/317 303/351/296
f  304/352/297 303/351/296 319/367/312
f  319/367/312 315/363/308 304/352/297
f  301/349/98 304/352/297 323/371/316
f  323/371/316 327/375/319 301/349/98
f  307/355/300 306/354/299 326/374/318
f  326/374/318 322/370/315 307/355/300
f  308/356/301 307/355/300 310/358/303
f  310/358/303 318/366/311 308/356/301
f  305/353/298 308/356/301 324/372/317
f  324/372/317 328/376/123 305/353/298
f  329/377/320 330/378/321 331/379/322
f  331/379/322 332/380/323 329/377/320
f  333/381/50 334/382/324 335/383/325
f  335/383/325 336/384/326 333/381/50
f  337/385/327 338/386/328 339/387/329
f  339/387/329 340/388/330 337/385/327
f  341/389/58 342/390/57 343/391/331
f  343/391/331 344/392/332 341/389/58
f  345/393/333 346/394/53 347/395/334
f  347/395/334 348/396/335 345/393/333
f  349/397/336 329/377/320 350/398/337
f  350/398/337 351/399/338 349/397/336
f  352/400/339 330/378/321 353/401/340
f  353/401/340 354/402/341 352/400/339
f  355/403/342 331/379/322 356/404/343
f  356/404/343 357/405/344 355/403/342
f  358/406/345 332/380/323 359/407/346
f  359/407/346 360/408/347 358/406/345
f  353/401/340 335/383/325 361/409/348
f  361/409/348 354/402/341 353/401/340
f  362/410/349 336/384/326 349/397/336
f  349/397/336 351/399/338 362/410/349
f  339/387/329 363/411/350 357/405/344
f  357/405/344 356/404/343 339/387/329
f  340/388/330 352/400/339 354/402/341
f  354/402/341 361/409/348 340/388/330
f  359/407/346 343/391/331 364/412/351
f  364/412/351 360/408/347 359/407/346
f  363/411/350 344/392/332 355/403/342
f  355/403/342 357/405/344 363/411/350
f  347/395/334 362/410/349 351/399/338
f  351/399/338 350/398/337 347/395/334
f  348/396/335 358/406/345 360/408/347
f  360/408/347 364/412/351 348/396/335
f  330/378/321 329/377/320 349/397/336
f  349/397/336 353/401/340 330/378/321
f  331/379/322 330/378/321 352/400/339
f  352/400/339 356/404/343 331/379/322
f  332/380/323 331/379/322 355/403/342
f  355/403/342 359/407/346 332/380/323
f  329/377/320 332/380/323 358/406/345
f  358/406/345 350/398/337 329/377/320
f  335/383/325 334/382/324 365/413/352
f  365/413/352 361/409/348 335/383/325
f  336/384/326 335/383/325 353/401/340
f  353/401/340 349/397/336 336/384/326
f  333/381/50 336/384/326 362/410/349
f  362/410/349 366/414/81 333/381/50
f  339/387/329 338/386/328 367/415/84
f  367/415/84 363/411/350 339/387/329
f  340/388/330 339/387/329 356/404/343
f  356/404/343 352/400/339 340/388/330
f  337/385/327 340/388/330 361/409/348
f  361/409/348 365/413/352 337/385/327
f  343/391/331 342/390/57 368/416/353
f  368/416/353 364/412/351 343/391/331
f  344/392/332 343/391/331 359/407/346
f  359/407/346 355/403/342 344/392/332
f  341/389/58 344/392/332 363/411/350
f  363/411/350 367/415/84 341/389/58
f  347/395/334 346/394/53 366/414/81
f  366/414/81 362/410/349 347/395/334
f  348/396/335 347/395/334 350/398/337
f  350/398/337 358/406/345 348/396/335
f  345/393/333 348/396/335 364/412/351
f  364/412/351 368/416/353 345/393/333
f  369/417/245 370/418/1 371/419/4
f  371/419/4 372/420/246 369/417/245
f  373/421/354 374/422/355 375/423/356
f  375/423/356 376/424/357 373/421/354
f  377/425/358 378/426/359 379/427/360
f  379/427/360 380/428/361 377/425/358
f  381/429/362 382/430/363 383/431/364
f  383/431/364 384/432/365 381/429/362
f  385/433/366 386/434/367 370/435/1
f  370/435/1 369/436/245 385/433/366
f  386/437/367 387/438/368 371/439/4
f  371/439/4 370/440/1 386/437/367
f  387/441/368 388/442/369 372/443/246
f  372/443/246 371/444/4 387/441/368
f  388/445/369 385/446/366 369/447/245
f  369/447/245 372/448/246 388/445/369
f  267/449/263 21/450/21 389/451/370
f  389/451/370 390/452/371 267/449/263
f  21/450/21 388/420/369 391/453/372
f  391/453/372 392/454/373 21/450/21
f  389/451/370 21/450/21 392/454/373
f  392/454/373 393/455/374 389/451/370
f  388/420/369 387/419/368 394/456/375
f  394/456/375 391/453/372 388/420/369
f  387/419/368 267/449/263 390/452/371
f  390/452/371 395/457/376 387/419/368
f  394/456/375 387/419/368 395/457/376
f  395/457/376 396/458/377 394/456/375
f  393/455/374 392/454/373 396/458/377
f  396/458/377 395/457/376 393/455/374
f  280/459/276 267/449/263 397/460/378
f  397/460/378 398/461/379 280/459/276
f  267/449/263 387/419/368 399/462/380
f  399/462/380 379/427/360 267/449/263
f  397/460/378 267/449/263 379/427/360
f  379/427/360 378/426/359 397/460/378
f  387/419/368 386/418/367 400/463/381
f  400/463/381 399/462/380 387/419/368
f  386/418/367 280/459/276 398/461/379
f  398/461/379 377/425/358 386/418/367
f  400/463/381 386/418/367 377/425/358
f  377/425/358 380/428/361 400/463/381
f  31/464/31 280/459/276 401/465/382
f  401/465/382 402/466/383 31/464/31
f  280/459/276 386/418/367 403/467/384
f  403/467/384 375/423/356 280/459/276
f  401/465/382 280/459/276 375/423/356
f  375/423/356 374/422/355 401/465/382
f  386/418/367 385/417/366 404/468/385
f  404/468/385 403/467/384 386/418/367
f  385/417/366 31/464/31 402/466/383
f  402/466/383 373/421/354 385/417/366
f  404/468/385 385/417/366 373/421/354
f  373/421/354 376/424/357 404/468/385
f  21/450/21 31/464/31 405/469/386
f  405/469/386 406/470/387 21/450/21
f  31/464/31 385/417/366 407/471/388
f  407/471/388 383/431/364 31/464/31
f  405/469/386 31/464/31 383/431/364
f  383/431/364 382/430/363 405/469/386
f  385/417/366 388/420/369 408/472/389
f  408/472/389 407/471/388 385/417/366
f  388/420/369 21/450/21 406/470/387
f  406/470/387 381/429/362 388/420/369
f  408/472/389 388/420/369 381/429/362
f  381/429/362 384/432/365 408/472/389
f  389/451/370 393/455/374 395/457/376
f  395/457/376 390/452/371 389/451/370
f  394/456/375 396/458/377 392/454/373
f  392/454/373 391/453/372 394/456/375
f  377/425/358 398/461/379 397/460/378
f  397/460/378 378/426/359 377/425/358
f  379/427/360 399/462/380 400/463/381
f  400/463/381 380/428/361 379/427/360
f  373/421/354 402/466/383 401/465/382
f  401/465/382 374/422/355 373/421/354
f  375/423/356 403/467/384 404/468/385
f  404/468/385 376/424/357 375/423/356
f  381/429/362 406/470/387 405/469/386
f  405/469/386 382/430/363 381/429/362
f  383/431/364 407/471/388 408/472/389
f  408/472/389 384/432/365 383/431/364
f  409/473/390 410/474/391 411/475/392
f  411/475/392 412/476/393 409/473/390
f  413/477/210 414/478/209 415/479/394
f  415/479/394 416/480/395 413/477/210
f  417/481/222 418/482/396 419/483/397
f  419/483/397 420/484/398 417/481/222
f  421/485/218 422/486/217 423/487/399
f  423/487/399 424/488/400 421/485/218
f  425/489/214 426/490/401 427/491/402
f  427/491/402 428/492/403 425/489/214
f  429/493/404 409/473/390 430/494/405
f  430/494/405 431/495/406 429/493/404
f  432/496/407 410/474/391 433/497/408
f  433/497/408 434/498/409 432/496/407
f  435/499/410 411/475/392 436/500/411
f  436/500/411 437/501/412 435/499/410
f  438/502/413 412/476/393 439/503/414
f  439/503/414 440/504/415 438/502/413
f  433/497/408 415/479/394 441/505/416
f  441/505/416 434/498/409 433/497/408
f  442/506/417 416/480/395 429/493/404
f  429/493/404 431/495/406 442/506/417
f  419/483/397 443/507/418 437/501/412
f  437/501/412 436/500/411 419/483/397
f  420/484/398 432/496/407 434/498/409
f  434/498/409 441/505/416 420/484/398
f  439/503/414 423/487/399 444/508/419
f  444/508/419 440/504/415 439/503/414
f  443/507/418 424/488/400 435/499/410
f  435/499/410 437/501/412 443/507/418
f  427/491/402 442/506/417 431/495/406
f  431/495/406 430/494/405 427/491/402
f  428/492/403 438/502/413 440/504/415
f  440/504/415 444/508/419 428/492/403
f  410/474/391 409/473/390 429/493/404
f  429/493/404 433/497/408 410/474/391
f  411/475/392 410/474/391 432/496/407
f  432/496/407 436/500/411 411/475/392
f  412/476/393 411/475/392 435/499/410
f  435/499/410 439/503/414 412/476/393
f  409/473/390 412/476/393 438/502/413
f  438/502/413 430/494/405 409/473/390
f  415/479/394 414/478/209 445/509/242
f  445/509/242 441/505/416 415/479/394
f  416/480/395 415/479/394 433/497/408
f  433/497/408 429/493/404 416/480/395
f  413/477/210 416/480/395 442/506/417
f  442/506/417 446/510/420 413/477/210
f  419/483/397 418/482/396 447/511/421
f  447/511/421 443/507/418 419/483/397
f  420/484/398 419/483/397 436/500/411
f  436/500/411 432/496/407 420/484/398
f  417/481/222 420/484/398 441/505/416
f  441/505/416 445/509/242 417/481/222
f  423/487/399 422/486/217 448/512/243
f  448/512/243 444/508/419 423/487/399
f  424/488/400 423/487/399 439/503/414
f  439/503/414 435/499/410 424/488/400
f  421/485/218 424/488/400 443/507/418
f  443/507/418 447/511/421 421/485/218
f  427/491/402 426/490/401 446/510/420
f  446/510/420 442/506/417 427/491/402
f  428/492/403 427/491/402 430/494/405
f  430/494/405 438/502/413 428/492/403
f  425/489/214 428/492/403 444/508/419
f  444/508/419 448/512/243 425/489/214
f  449/513/422 450/514/423 451/515/424
f  451/515/424 452/516/425 449/513/422
f  453/517/170 454/518/169 455/519/426
f  455/519/426 456/520/427 453/517/170
f  457/521/428 458/522/429 459/523/430
f  459/523/430 460/524/431 457/521/428
f  461/525/178 462/526/177 463/527/432
f  463/527/432 464/528/433 461/525/178
f  465/529/434 466/530/173 467/531/435
f  467/531/435 468/532/436 465/529/434
f  469/533/437 449/513/422 470/534/438
f  470/534/438 471/535/439 469/533/437
f  472/536/440 450/514/423 473/537/441
f  473/537/441 474/538/442 472/536/440
f  475/539/443 451/515/424 476/540/444
f  476/540/444 477/541/445 475/539/443
f  478/542/446 452/516/425 479/543/447
f  479/543/447 480/544/448 478/542/446
f  473/537/441 455/519/426 481/545/449
f  481/545/449 474/538/442 473/537/441
f  482/546/450 456/520/427 469/533/437
f  469/533/437 471/535/439 482/546/450
f  459/523/430 483/547/451 477/541/445
f  477/541/445 476/540/444 459/523/430
f  460/524/431 472/536/440 474/538/442
f  474/538/442 481/545/449 460/524/431
f  479/543/447 463/527/432 484/548/452
f  484/548/452 480/544/448 479/543/447
f  483/547/451 464/528/433 475/539/443
f  475/539/443 477/541/445 483/547/451
f  467/531/435 482/546/450 471/535/439
f  471/535/439 470/534/438 467/531/435
f  468/532/436 478/542/446 480/544/448
f  480/544/448 484/548/452 468/532/436
f  450/514/423 449/513/422 469/533/437
f  469/533/437 473/537/441 450/514/423
f  451/515/424 450/514/423 472/536/440
f  472/536/440 476/540/444 451/515/424
f  452/516/425 451/515/424 475/539/443
f  475/539/443 479/543/447 452/516/425
f  449/513/422 452/516/425 478/542/446
f  478/542/446 470/534/438 449/513/422
f  455/519/426 454/518/169 485/549/453
f  485/549/453 481/545/449 455/519/426
f  456/520/427 455/519/426 473/537/441
f  473/537/441 469/533/437 456/520/427
f  453/517/170 456/520/427 482/546/450
f  482/546/450 486/550/201 453/517/170
f  459/523/430 458/522/429 487/551/204
f  487/551/204 483/547/451 459/523/430
f  460/524/431 459/523/430 476/540/444
f  476/540/444 472/536/440 460/524/431
f  457/521/428 460/524/431 481/545/449
f  481/545/449 485/549/453 457/521/428
f  463/527/432 462/526/177 488/552/454
f  488/552/454 484/548/452 463/527/432
f  464/528/433 463/527/432 479/543/447
f  479/543/447 475/539/443 464/528/433
f  461/525/178 464/528/433 483/547/451
f  483/547/451 487/551/204 461/525/178
f  467/531/435 466/530/173 486/550/201
f  486/550/201 482/546/450 467/531/435
f  468/532/436 467/531/435 470/534/438
f  470/534/438 478/542/446 468/532/436
f  465/529/434 468/532/436 484/548/452
f  484/548/452 488/552/454 465/529/434
f  489/553/455 490/554/456 491/555/457
f  491/555/457 492/556/458 489/553/455
f  493/557/459 494/558/460 495/559/461
f  495/559/461 496/560/462 493/557/459
f  22/561/22 21/562/21 497/563/463
f  497/563/463 498/564/464 22/561/22
f  21/562/21 267/565/263 499/566/465
f  499/566/465 497/563/463 21/562/21
f  267/565/263 145/567/143 500/568/466
f  500/568/466 499/566/465 267/565/263
f  145/567/143 22/561/22 498/564/464
f  498/564/464 500/568/466 145/567/143
f  498/564/464 497/563/463 489/553/455
f  489/553/455 492/556/458 498/564/464
f  497/563/463 499/566/465 490/554/456
f  490/554/456 489/553/455 497/563/463
f  499/566/465 500/568/466 491/555/457
f  491/555/457 490/554/456 499/566/465
f  500/568/466 498/564/464 492/556/458
f  492/556/458 491/555/457 500/568/466
f  31/569/31 36/570/36 501/571/467
f  501/571/467 502/572/468 31/569/31
f  36/570/36 158/573/156 503/574/469
f  503/574/469 501/571/467 36/570/36
f  158/573/156 280/575/276 504/576/470
f  504/576/470 503/574/469 158/573/156
f  280/575/276 31/569/31 502/572/468
f  502/572/468 504/576/470 280/575/276
f  502/572/468 501/571/467 493/557/459
f  493/557/459 496/560/462 502/572/468
f  501/571/467 503/574/469 494/558/460
f  494/558/460 493/557/459 501/571/467
f  503/574/469 504/576/470 495/559/461
f  495/559/461 494/558/460 503/574/469
f  504/576/470 502/572/468 496/560/462
f  496/560/462 495/559/461 504/576/470

